<?xml version="1.0" standalone="no"?>
<!DOCTYPE svg PUBLIC "-//W3C//DTD SVG 1.1//EN" "http://www.w3.org/Graphics/SVG/1.1/DTD/svg11.dtd" >
<svg xmlns="http://www.w3.org/2000/svg">
<metadata>Generated by IcoMoon</metadata>
<defs>
<font id="almeedex" horiz-adv-x="1024">
<font-face units-per-em="1024" ascent="960" descent="-64" />
<missing-glyph horiz-adv-x="1024" />
<glyph unicode="&#x20;" horiz-adv-x="512" d="" />
<glyph unicode="&#xe900;" glyph-name="almeedex" horiz-adv-x="836" d="M104.468 587.855l91.632-36.1c-17.827-27.989-30.752-48.401-37.972-61.237-15.641-28.569-27.523-61.743-33.841-96.851l-0.299-2.001c-4.134-22.268-6.499-47.889-6.499-74.063 0-6.054 0.126-12.078 0.377-18.070l-0.028 0.857c1.098-38.952 8.291-75.875 20.654-110.336l-0.777 2.48c8.922-21.633 18.033-39.713 28.3-57.025l-1.113 2.028c25.483-36.745 53.226-68.846 84.004-97.753l0.319-0.297-29.593-22.373 148.858-31.554q-30.217-17.827-48.758-26.741c7.488-4.602 16.19-8.175 25.463-10.234l0.565-0.105c12.538-3.623 26.941-5.706 41.829-5.706 0.242 0 0.484 0.001 0.726 0.002h-0.037c0.044 0.002 0.096 0.003 0.148 0.003 0.846 0 1.63-0.268 2.271-0.724l-0.012 0.008-3.387-1.248c-12.398-3.339-26.632-5.256-41.315-5.256-20.097 0-39.354 3.593-57.166 10.172l1.143-0.37c-29.685 10.436-55.353 25.044-77.826 43.414l0.456-0.361c-46.062 35.908-84.294 79.397-113.385 128.904l-1.155 2.126c-30.767 52.022-56.6 112.131-74.396 175.6l-1.28 5.347c-8.211 28.383-14.949 62.353-18.894 97.17l-0.27 2.93c-2.095 16.452-3.291 35.486-3.291 54.799 0 3.047 0.030 6.088 0.089 9.121l-0.007-0.455c0.662 53.455 12.613 103.955 33.568 149.451l-0.944-2.287c19.356 41.817 48.061 76.438 83.577 102.258l0.746 0.517c11.839 7.345 25.49 13.588 39.929 18.031l1.252 0.331c28.167 8.201 58.474 5.972 61.504 7.844q0.981 0.713-115.164-152.245zM835.031 418.852c-7.906-69.55-24.327-133.038-48.369-192.633l1.751 4.912c-13.844-38.374-28.266-70.423-44.762-101.195l1.976 4.036c-23.636-44.070-52.988-81.667-87.674-113.552l-0.304-0.276c-21.821-20.314-46.878-37.563-74.229-50.821l-1.805-0.789c-22.255-10.417-48.101-18.52-75.164-23.023l-1.761-0.242c-38.418-6.24-146.362-0.802-172.568 14.886 21.036 9.448 39.131 21.125 59.989 31.109l-11.944 89.136c25.099-6.85 53.917-10.786 83.654-10.786 0.11 0 0.22 0 0.33 0h-0.017c42.607 0 82.986 15.599 121.85 33.337 36.871 16.61 68.609 37.215 96.699 61.876l-0.432-0.372c14.529 13.646 27.814 28.202 39.922 43.722l0.635 0.846c31.822 38.774 63.465 130.228 65.604 136.022 3.373 11.015 6.185 24.206 7.897 37.74l0.125 1.213 19.788-12.301c10.786 40.825 16.579 64.267 17.827 70.418s1.337 10.34 2.050 15.51c0.248-4.197 0.389-9.105 0.389-14.045 0-8.645-0.433-17.19-1.278-25.612l0.086 1.062zM448.357 730.919c19.562 5.516 42.888 9.945 66.795 12.414l1.84 0.154c17.079 1.895 36.882 2.976 56.937 2.976 14.469 0 28.806-0.563 42.992-1.667l-1.879 0.118c56.247-2.917 106.483-26.495 143.713-63.222l-0.025 0.024c21.552-21.671 39.198-47.253 51.775-75.585l0.637-1.607c12.992-27.062 21.926-58.524 25.052-91.677l0.085-1.114c0.113-2.299 0.177-4.994 0.177-7.703 0-10.892-1.038-21.542-3.019-31.856l0.168 1.052c-1.515-8.914-6.418-29.058-14.618-59.811l-22.106 71.309-26.741 60.524-68.457-52.323c-15.338 28.046-29.922 51.346-45.67 73.768l1.637-2.459c-51.514 75.338-125.123 132.236-211.421 161.795l-2.952 0.879-3.744 1.337 8.914 2.585zM472.423 817.382c-1.783-4.368-3.031-7.666-4.457-10.964l-15.51-36.279c-2.849-7.273-8.456-12.939-15.502-15.799l-0.186-0.067c-6.343-2.563-14.138-5.041-22.146-6.974l-1.208-0.246c-1.869-0.325-4.022-0.511-6.217-0.511-6.11 0-11.883 1.44-17 3.998l0.22-0.1c1.248 3.387 2.585 6.329 3.655 9.359 4.992 14.44 10.162 28.88 14.975 43.409 8.111 24.245 15.955 48.49 23.889 72.735 4.77 12.717 8.714 27.725 11.148 43.235l0.172 1.333c0 2.139 0 4.189 0.624 6.329 0.157 5.318 3.417 9.837 8.025 11.822l0.086 0.033c13.598 6.823 30.584 14.016 48.028 20.243l3.404 1.060h1.515c0-1.783 0.624-3.655 0.624-5.437 0-18.719 0-37.437 0-56.156 0-12.657-0.802-25.315-1.515-37.972-1.515-24.334-3.298-48.758-4.992-73.092 0-3.922-0.535-7.844-1.070-11.677s-1.248-5.794-1.872-8.914c-0.002 0-0.004 0-0.005 0-4.654 0-8.537 3.303-9.432 7.693l-0.011 0.062c-4.1 12.568-8.914 24.958-13.014 37.437-0.446 1.426-1.070 2.674-2.050 5.081zM234.429 576.713c-28.791-36.635-81.292-113.56-95.822-203.053-17.025-105.003 14.084-228.279 135.577-338.006l-29.415-13.905 139.855-28.88-14.262 92.524-23.443-13.46c-112.312 170.786 19.343 352.891 80.223 405.393-49.203 55.621-106.251 104.825-192.713 99.387zM357.348 105.538c36.992-5.972 95.198-21.393 161.694-5.437 110.708 26.741 237.014 116.591 272.223 306.184l26.741-19.343-46.886 139.588-70.507-59.276 23.175-14.173c-86.284-186.295-306.006-160.446-381.148-132.011-21.749-72.29-33.961-141.37 14.708-215.532zM689.738 442.295c-21.214 51.788-72.914 162.050-166.507 220.256-75.766 47.242-180.68 55.799-306.273 6.685l1.961 33.159-90.741-113.382 85.749-30.128v27.632c199.398 22.552 293.259-181.393 309.482-260.992 71.309 18.719 130.852 35.655 166.507 116.769z" />
</font></defs></svg>