<?xml version="1.0" standalone="no"?>
<!DOCTYPE svg PUBLIC "-//W3C//DTD SVG 1.1//EN" "http://www.w3.org/Graphics/SVG/1.1/DTD/svg11.dtd" >
<svg xmlns="http://www.w3.org/2000/svg">
<metadata>Generated by IcoMoon</metadata>
<defs>
<font id="enji" horiz-adv-x="1024">
<font-face units-per-em="1024" ascent="960" descent="-64" />
<missing-glyph horiz-adv-x="1024" />
<glyph unicode="&#x20;" horiz-adv-x="512" d="" />
<glyph unicode="&#xe900;" glyph-name="image2vector-2-1" d="M412.672 957.978c0-1.91-0.847-2.035-15.616-2.304l-15.616-0.282-0.635-7.68-13.507-0.013c-16.873-0.018-17.884-0.271-18.716-4.708l-0.65-3.471-9.359-0.013c-12.741-0.020-13.965-0.43-13.965-4.672v-3.42l-15.872-0.599-0.635-7.68h-10.107c-10.629 0-13.322-1.021-13.322-5.048 0-1.485-1.18-1.951-6.295-2.486-7.053-0.737-9.065-1.9-9.065-5.243 0-2.076-0.635-2.345-6.912-2.931-7.101-0.663-9.472-2.145-9.472-5.929 0-1.331-0.988-1.874-3.84-2.109-3.633-0.3-3.858-0.525-4.157-4.157l-0.317-3.84h-7.071c-7.524 0-9.19-1.101-9.19-6.077 0-1.784-0.64-2.115-4.096-2.115-4.088 0-4.096-0.008-4.096-4.050v-4.052l-14.848-0.602-0.317-3.269c-0.287-2.962-0.673-3.3-4.096-3.584-3.551-0.297-3.796-0.543-4.093-4.096-0.294-3.553-0.543-3.802-4.096-4.096-3.564-0.297-3.799-0.535-4.099-4.155l-0.317-3.84h-5.888c-6.569 0-9.047-1.331-9.533-5.12-0.264-2.058-1.029-2.66-3.912-3.072-3.282-0.468-3.61-0.829-3.899-4.293-0.294-3.553-0.543-3.802-4.096-4.096-3.441-0.287-3.809-0.614-4.101-3.643-0.282-2.916-0.689-3.328-3.292-3.328-3.144 0-5.092-2.304-5.092-6.016 0-1.633-0.786-2.117-3.84-2.371-3.633-0.3-3.858-0.525-4.157-4.157-0.253-3.054-0.737-3.84-2.371-3.84-3.712 0-6.016-1.948-6.016-5.092 0-2.604-0.412-3.011-3.328-3.292-3.028-0.292-3.356-0.66-3.643-4.101-0.294-3.553-0.543-3.802-4.096-4.096-3.464-0.289-3.825-0.617-4.293-3.899-0.412-2.883-1.014-3.648-3.072-3.912-3.789-0.486-5.12-2.964-5.12-9.533v-5.888l-3.84-0.317c-3.62-0.3-3.858-0.535-4.155-4.099-0.294-3.553-0.543-3.802-4.096-4.096-3.553-0.297-3.799-0.543-4.096-4.093-0.284-3.423-0.622-3.809-3.584-4.096l-3.269-0.317-0.302-7.424-0.3-7.424h-4.052c-4.042 0-4.050-0.008-4.050-4.096 0-3.456-0.33-4.096-2.115-4.096-4.977 0-6.077-1.667-6.077-9.19v-7.071l-3.84-0.317c-3.633-0.3-3.858-0.525-4.157-4.157-0.236-2.852-0.778-3.84-2.109-3.84-3.784 0-5.266-2.371-5.929-9.472-0.586-6.277-0.855-6.912-2.931-6.912-3.343 0-4.506-2.012-5.243-9.065-0.535-5.115-1.001-6.295-2.486-6.295-4.027 0-5.048-2.693-5.048-13.322v-10.107l-7.68-0.635-0.599-15.872h-3.42c-4.242 0-4.652-1.224-4.672-13.965l-0.013-9.359-3.471-0.65c-4.436-0.832-4.69-1.843-4.708-18.716l-0.013-13.507-7.68-0.635-0.282-15.616c-0.269-14.769-0.394-15.616-2.304-15.616-1.999 0-2.022-1.121-2.022-99.84 0-99.156 0.013-99.84 2.048-99.84 1.953 0 2.048-0.684 2.048-14.643 0-15.836 0.394-17.101 5.325-17.101h2.867v-13.891c0-15.447 0.684-17.853 5.066-17.853h2.944l0.348-11.302c0.366-12.001 0.896-13.225 5.722-13.258 2.184-0.015 2.304-0.417 2.304-7.695v-7.68h8.192v-9.795c0-10.836 0.955-13.757 4.495-13.757 2.186 0 2.427-0.55 3.021-6.912 0.658-7.058 2.148-9.472 5.85-9.472 1.347 0 1.828-1.313 2.271-6.182 0.632-6.973 1.948-9.178 5.481-9.178 2.071 0 2.435-0.504 2.435-3.379 0-4.119 1.554-5.837 5.279-5.837 2.796 0 2.826-0.077 3.123-7.424l0.302-7.424 3.84-0.317c3.732-0.31 3.84-0.43 3.84-4.352 0-4.017 0.018-4.035 4.050-4.035h4.052l0.3-7.424c0.3-7.375 0.323-7.429 3.579-8.389 2.798-0.824 3.323-1.503 3.584-4.608 0.287-3.405 0.558-3.663 4.147-3.96 3.633-0.302 3.84-0.509 3.84-3.84 0-3.428 0.11-3.523 4.096-3.523h4.096v-6.582c0-7.283 1.467-9.802 5.706-9.802 2.143 0 2.486-0.479 2.486-3.474 0-3.671 1.27-4.718 5.716-4.718 2.132 0 2.476-0.481 2.476-3.474 0-3.551 1.288-4.718 5.204-4.718 1.252 0 1.964-0.712 1.964-1.964 0-3.896 1.17-5.204 4.657-5.204 3.203 0 3.43-0.236 3.73-3.84 0.3-3.633 0.525-3.858 4.157-4.157 3.261-0.271 3.84-0.681 3.84-2.732 0-4.383 1.060-5.655 4.718-5.655 3.267 0 3.474-0.207 3.474-3.474 0-3.671 1.27-4.718 5.716-4.718 2.132 0 2.476-0.481 2.476-3.474 0-3.671 1.27-4.718 5.716-4.718 1.925 0 2.476-0.543 2.476-2.435 0-3.494 1.935-4.646 9.065-5.391l6.295-0.658v-3.438c0-3.328 0.131-3.438 4.096-3.438h4.096v-8.192h4.096c3.971 0 4.096-0.105 4.096-3.464 0-4.014 1.428-4.692 9.923-4.716l5.315-0.013 0.317-3.84c0.3-3.61 0.54-3.858 4.055-4.152 3.336-0.276 3.804-0.676 4.375-3.727 0.735-3.912 2.365-4.628 10.575-4.652l5.376-0.013v-3.584c0-3.5 0.097-3.584 4.096-3.584 3.561 0 4.099-0.302 4.111-2.304 0.031-4.311 1.6-5.35 8.906-5.888 6.482-0.476 6.973-0.686 7.278-3.072 0.484-3.771 2.957-5.12 9.385-5.12 5.588 0 5.76-0.087 6.715-3.328 1.157-3.927 3.169-4.562 15.060-4.744l7.936-0.12v-2.867c0-4.344 1.723-5.325 9.357-5.325h6.897l0.323-3.328 0.32-3.328 11.52-0.289c10.806-0.271 11.52-0.42 11.52-2.371 0-5.732 0.901-6.044 17.444-6.044h15.324v-8.192h15.872c15.188 0 15.872-0.087 15.872-2.048 0-2.035 0.684-2.048 99.84-2.048 98.719 0 99.84 0.023 99.84 2.022 0 1.91 0.847 2.035 15.616 2.304l15.616 0.282 0.317 3.814 0.315 3.812 31.112 0.566 0.315 3.807 0.317 3.807 22.92 0.579 0.968 3.287c0.96 3.256 1.037 3.29 8.192 3.584l7.224 0.297 0.31 3.707 0.31 3.704 10.148 0.489c10.588 0.509 12.948 1.426 13.491 5.23 0.282 1.979 1.098 2.286 7.268 2.742 7.306 0.538 8.876 1.577 8.906 5.888 0.015 2.122 0.481 2.304 5.965 2.304 6.628 0 9.106 1.321 9.595 5.12 0.274 2.143 0.993 2.644 4.424 3.072 3.748 0.468 4.124 0.796 4.416 3.84 0.32 3.313 0.348 3.328 5.957 3.328 7.25 0 9.595 1.26 9.595 5.156 0 2.86 0.238 3.036 4.096 3.036 4.076 0 4.096 0.020 4.096 3.981v3.981l7.227 0.407c7.585 0.43 9.111 1.372 9.142 5.65 0.013 1.848 0.689 2.299 3.855 2.56 3.633 0.3 3.858 0.525 4.157 4.157 0.302 3.633 0.509 3.84 3.84 3.84 3.315 0 3.523 0.202 3.523 3.436v3.436l6.912 0.645c7.135 0.666 9.472 2.143 9.472 5.99 0 1.28 0.771 1.853 2.486 1.853 3.182 0 5.706 2.524 5.706 5.706 0 1.948 0.538 2.486 2.486 2.486 3.159 0 5.706 2.516 5.706 5.64 0 1.984 0.602 2.481 3.328 2.744 3.039 0.292 3.356 0.655 3.645 4.16 0.31 3.732 0.43 3.84 4.352 3.84 4.014 0 4.035 0.020 4.035 4.035 0 3.922 0.108 4.042 3.84 4.352 3.505 0.289 3.868 0.607 4.16 3.645 0.264 2.726 0.76 3.328 2.744 3.328 3.123 0 5.64 2.547 5.64 5.706 0 1.948 0.538 2.486 2.486 2.486 3.182 0 5.706 2.524 5.706 5.706 0 1.715 0.573 2.486 1.853 2.486 3.848 0 5.325 2.337 5.99 9.472l0.645 6.912h3.436c3.233 0 3.436 0.207 3.436 3.523 0 3.331 0.207 3.538 3.84 3.84 3.633 0.3 3.858 0.525 4.157 4.157 0.261 3.167 0.712 3.843 2.56 3.855 4.278 0.031 5.22 1.556 5.65 9.142l0.407 7.227h3.981c3.96 0 3.981 0.020 3.981 4.096 0 3.858 0.177 4.096 3.036 4.096 3.896 0 5.156 2.345 5.156 9.595 0 5.609 0.015 5.637 3.328 5.957 3.044 0.292 3.372 0.668 3.84 4.416 0.428 3.43 0.929 4.15 3.072 4.424 3.799 0.489 5.12 2.967 5.12 9.595 0 5.484 0.182 5.949 2.304 5.965 4.311 0.031 5.35 1.6 5.888 8.906 0.456 6.17 0.763 6.986 2.742 7.268 3.804 0.543 4.721 2.903 5.23 13.491l0.489 10.148 7.411 0.62 0.297 7.224c0.294 7.155 0.328 7.232 3.584 8.192l3.287 0.968 0.289 11.461 0.289 11.459 7.613 0.632 0.282 15.555 0.284 15.557 7.626 0.632 0.282 15.616c0.269 14.769 0.394 15.616 2.304 15.616 1.999 0 2.022 1.121 2.022 99.84 0 99.156-0.013 99.84-2.048 99.84-1.961 0-2.048 0.684-2.048 15.872v15.872h-8.192v15.324c0 16.543-0.312 17.444-6.044 17.444-1.951 0-2.099 0.714-2.371 11.52l-0.289 11.52-6.656 0.643v6.897c0 7.634-0.98 9.357-5.325 9.357h-2.867l-0.12 7.936c-0.182 11.891-0.817 13.903-4.744 15.060-3.241 0.955-3.328 1.126-3.328 6.715 0 6.428-1.349 8.901-5.12 9.385-2.386 0.305-2.596 0.796-3.072 7.278-0.538 7.306-1.577 8.876-5.888 8.906-2.002 0.013-2.304 0.55-2.304 4.111 0 3.999-0.084 4.096-3.584 4.096h-3.584l-0.013 5.376c-0.023 8.21-0.74 9.841-4.652 10.575-3.052 0.571-3.451 1.039-3.727 4.375-0.294 3.515-0.543 3.756-4.152 4.055l-3.84 0.317-0.013 5.315c-0.023 8.494-0.701 9.923-4.716 9.923-3.359 0-3.464 0.125-3.464 4.096v4.096h-8.192v4.096c0 3.965-0.11 4.096-3.438 4.096h-3.438l-0.658 6.295c-0.745 7.13-1.897 9.065-5.391 9.065-1.892 0-2.435 0.55-2.435 2.476 0 4.447-1.047 5.716-4.718 5.716-2.993 0-3.474 0.343-3.474 2.476 0 4.447-1.047 5.716-4.718 5.716-3.267 0-3.474 0.207-3.474 3.474 0 3.658-1.272 4.718-5.655 4.718-2.051 0-2.46 0.579-2.732 3.84-0.3 3.633-0.525 3.858-4.157 4.157-3.604 0.3-3.84 0.527-3.84 3.73 0 3.487-1.308 4.657-5.204 4.657-1.252 0-1.964 0.712-1.964 1.964 0 3.917-1.167 5.204-4.718 5.204-2.993 0-3.474 0.343-3.474 2.476 0 4.447-1.047 5.716-4.718 5.716-2.995 0-3.474 0.343-3.474 2.486 0 4.239-2.519 5.706-9.802 5.706h-6.582v4.096c0 3.986-0.095 4.096-3.523 4.096-3.331 0-3.538 0.207-3.84 3.84-0.3 3.61-0.54 3.858-4.055 4.152-3.361 0.279-3.802 0.663-4.398 3.84l-0.66 3.528h-15.268v4.096c0 4.086-0.010 4.096-4.035 4.096-3.922 0-4.042 0.108-4.352 3.84l-0.317 3.84-7.424 0.302c-7.347 0.297-7.424 0.328-7.424 3.123 0 3.725-1.718 5.279-5.837 5.279-2.875 0-3.379 0.364-3.379 2.435 0 3.533-2.204 4.849-9.178 5.481-4.869 0.443-6.182 0.924-6.182 2.271 0 3.702-2.414 5.192-9.472 5.85-6.362 0.594-6.912 0.835-6.912 3.021 0 3.54-2.921 4.495-13.757 4.495h-9.795v8.192h-7.68c-7.278 0-7.68 0.12-7.695 2.304-0.033 4.826-1.257 5.356-13.258 5.722l-11.302 0.348v2.944c0 4.383-2.406 5.066-17.853 5.066h-13.891v2.867c0 4.931-1.265 5.325-17.101 5.325-13.96 0-14.643 0.095-14.643 2.048 0 2.035-0.684 2.048-99.84 2.048-98.719 0-99.84-0.023-99.84-2.022zM772.982 672.937c1.897-1.034 3.679-2.762 3.96-3.84 0.394-1.51 1.434-1.961 4.521-1.961 5.558 0 10.55-2.314 12.644-5.86 0.973-1.646 3.003-3.459 4.513-4.029 4.411-1.664 5.228-6.523 5.161-30.676-0.064-24.532-0.776-28.239-5.573-29.064-2.145-0.369-3.167-1.188-3.384-2.719-0.924-6.464 12.46-5.96-166.195-6.257-149.819-0.248-161.684-0.392-161.684-1.966 0-4.657-2.575-5.445-17.823-5.448-30.062-0.005-62.049-1.306-62.049-2.524 0-3.302-2.947-5.033-9.761-5.74-5.376-0.556-7.327-1.216-8.604-2.911-1.938-2.568-5.829-4.736-10.237-5.704-2.355-0.517-3.141-1.26-3.141-2.964 0-2.888-1.83-4.731-4.692-4.731-2.381 0-3.461-2.319-3.487-7.491-0.018-3.876-1.687-6.753-4.544-7.841-2.373-0.901-5.235-38.636-3.182-41.956 0.463-0.753 65.879-1.080 215.165-1.080 231.465 0 220.928 0.243 222.328-5.107 0.479-1.828 1.382-2.061 8.041-2.061 7.918 0 10.691-1.654 10.691-6.372 0-1.334 0.809-1.82 3.036-1.82 4.152 0 5.156-2.355 5.156-12.111 0-6.3 0.348-8.284 1.536-8.74 0.845-0.323 1.536-1.308 1.536-2.189s-0.691-1.866-1.536-2.189c-1.277-0.492-1.536-3.351-1.536-16.932 0-15.462-0.74-20.303-3.108-20.303-1.283 0-5.084-3.802-5.084-5.084 0-1.62-3.704-3.108-7.744-3.108-2.885 0-4.726-0.85-7.752-3.584l-3.965-3.584h-218.537c-229.345 0-222.566 0.105-220.239-3.446 1.070-1.633 1.649-7.583 2.158-22.177l0.696-19.945 3.297-3.689c2.217-2.481 3.525-5.21 3.991-8.33 0.681-4.536 2.463-7.027 5.896-8.241 0.937-0.33 2.319-1.856 3.072-3.387 1.569-3.2 2.847-3.976 8.535-5.181 3.203-0.678 4.401-1.562 5.499-4.052 1.395-3.167 1.462-3.19 10.911-3.753 9.774-0.584 12.567-1.457 16.696-5.222l2.386-2.176 185.006-0.251c200-0.271 190.19-0.054 195.036-4.311 2.158-1.894 5.046-3.18 8.2-3.653 5.033-0.755 6.858-2.504 6.858-6.566 0-1.672 0.65-2.115 3.098-2.115 4.605 0 5.094-2.557 5.094-26.624 0-23.675-0.448-26.109-5-27.11-2.529-0.556-3.128-1.249-3.389-3.927-0.23-2.373-1.078-3.615-3.131-4.595-1.549-0.74-2.816-1.692-2.816-2.117 0-2.903-4.411-5.112-11.53-5.78-6.344-0.594-7.68-1.050-8.494-2.903-2.447-5.56 8.013-5.253-190.011-5.581-220.403-0.366-229.261-0.115-229.261 6.482 0 0.896-4.252 1.464-14.971 2.002l-14.968 0.748-3.72 3.333c-3.356 3.013-4.483 3.382-11.617 3.827-8.366 0.522-10.724 1.62-11.238 5.233-0.271 1.897-1.216 2.34-6.362 2.98-6.282 0.781-9.828 2.921-9.828 5.932 0 1.193-1.085 1.93-3.384 2.304-2.893 0.468-6.702 3.251-12.308 8.988-0.66 0.678-2.854 2.9-4.869 4.941-2.017 2.040-3.953 4.49-4.298 5.443s-1.923 2.555-3.502 3.558c-3.74 2.383-4.372 3.351-4.39 6.74-0.010 2.048-0.53 2.816-1.905 2.816-3.308 0-5.425 3.574-6.024 10.163-0.351 3.863-1.032 6.221-1.8 6.221-3.167 0-4.905 4.145-5.901 14.054-0.847 8.43-1.375 10.332-3.351 12.058-5.192 4.534-5.1 2.355-5.1 119.808 0 117.087-0.041 116.076 5.020 120.059 2.053 1.615 2.522 3.177 3.159 10.55 0.873 10.068 2.55 14.84 5.55 15.793 1.441 0.458 2.143 1.541 2.143 3.31 0 5.548 2.36 10.839 5.332 11.963 1.853 0.699 2.86 1.82 2.86 3.187 0 3.267 2.898 6.659 5.691 6.659 2.025 0 2.501 0.517 2.501 2.716 0 1.787 1.318 4.017 3.84 6.502 2.112 2.081 4.434 4.544 5.161 5.476 0.724 0.929 2.683 1.69 4.352 1.69 2.509 0 3.031 0.42 3.031 2.435 0 2.875 1.597 4.403 5.11 4.892 1.546 0.215 3.067 1.434 3.863 3.098 1.321 2.765 4.352 4.165 11.658 5.389 2.88 0.481 3.884 1.213 4.38 3.195 0.827 3.287 3.238 4.155 14.075 5.056 7.977 0.666 8.922 0.97 9.94 3.205 1.661 3.648 5.087 4.475 18.524 4.475h12.122l1.057 3.036c1.027 2.944 1.994 3.461 8.358 4.48 10.593 1.695 411.372 0.036 414.582-1.715z" />
</font></defs></svg>