<?xml version="1.0" encoding="iso-8859-1"?>
<!-- Generator: Adobe Illustrator 23.0.0, SVG Export Plug-In . SVG Version: 6.00 Build 0)  -->
<svg version="1.1" id="katman_1" xmlns="http://www.w3.org/2000/svg" xmlns:xlink="http://www.w3.org/1999/xlink" x="0px" y="0px"
	 viewBox="0 0 56 56" style="enable-background:new 0 0 56 56;" xml:space="preserve">
<g>
	<path style="fill:#1D114F;" d="M28.411,55.504c-0.424-0.001-0.848-0.002-1.272-0.003c-0.133-0.474-0.367-0.894-0.673-1.278
		c-0.387-0.227,0.714-1.234-0.531-1.004c-0.223,0.053-0.441,0.123-0.667,0.167c-0.443,0.063-0.772-0.211-1.137-0.383
		c-0.425-0.615-1.012-0.116-1.511-0.217c-0.176-0.005-0.351-0.019-0.525-0.035c-0.607-0.053-1.116-0.278-1.433-0.828
		c-0.141-0.114-0.293-0.092-0.447-0.033c-0.319,0.112-0.37,0.393-0.427,0.67c-0.085,0.234-0.222,0.418-0.477,0.486
		c-0.743-0.15-0.667-0.708-0.628-1.249c0.014-0.37-0.338-0.493-0.507-0.738c-0.119-0.165-0.206-0.345-0.246-0.54
		c-0.047-0.031,0.069-0.203-0.114-0.117c-0.059,0.152-0.151,0.265-0.28,0.35c-0.155,0.063-0.313,0.069-0.473,0.033
		c-0.262-0.109-0.478-0.07-0.621,0.202c-0.167,0.212-0.353,0.253-0.567,0.07c-0.209-0.202-0.386-0.427-0.474-0.709
		c0.03-0.459-0.31-0.64-0.632-0.835c-0.358-0.466-0.338,0.354-0.61,0.18c-0.262-0.003-0.441-0.137-0.563-0.359
		c0.039-0.688-0.468-0.823-0.973-0.958c-0.114-0.128-0.166-0.281-0.173-0.448c-0.008-0.133-0.013-0.273-0.22-0.233
		c-0.423,0.012-0.698-0.247-0.975-0.507c-0.121-0.121-0.226-0.254-0.318-0.398c-0.169-0.372-0.44-0.6-0.865-0.613
		c-0.338-0.098-0.568-0.336-0.781-0.597c-0.138-0.242-0.084-0.517-0.133-0.773c-0.127-0.376-0.542-0.458-0.76-0.74
		c-0.194-0.199-0.387-0.398-0.472-0.673c0.035-0.301-0.094-0.508-0.369-0.629c-0.295-0.227-0.514-0.536-0.822-0.75
		c-0.081-0.073-0.146-0.158-0.202-0.251c-0.12-0.243-0.29-0.456-0.42-0.695C6.09,40.955,6.1,40.845,6.138,40.737
		c0.476-0.906-0.698-0.824-0.823-1.368c-0.066-0.096-0.122-0.198-0.173-0.303c-0.47-0.452-0.11-1.201-0.594-1.647
		c-0.362-0.192-0.681-0.279-0.754,0.289c-0.162,0.413-0.322,0.83-0.898,0.517c-0.645-0.293,0.319-0.98-0.313-1.275
		c-0.01-0.777,0.913-0.725,1.14-1.289c0.096-0.333,0.349-0.644,0.131-1.015c-0.151-0.135-0.313-0.259-0.417-0.433
		c-0.593-0.441-0.482,0.414-0.817,0.446c-0.282,0.08-0.44-0.063-0.546-0.302l-0.001-0.015c-0.607-0.716,0.065-1.156,0.36-1.679
		c0.597-0.339,1.208-0.674,0.25-1.309c-0.219-0.143-0.274-0.345-0.212-0.589c0.269-0.34,0.173-0.69,0.022-1.041
		c-0.017-0.303,0.203-0.507,0.312-0.758c0.275-0.481-0.024-0.902-0.139-1.341c-0.058-0.23-0.064-0.461,0.003-0.691
		c0.406-0.506,0.045-0.912-0.178-1.336c-0.017-0.115,0-0.225,0.048-0.33c0.181-0.204,0.365-0.407,0.416-0.69
		c0.065-0.26,0.14-0.516,0.208-0.775c0.076-0.256,0.05-0.525,0.089-0.787c0.046-0.16,0.119-0.308,0.185-0.459
		c0.16-0.394-0.014-0.781-0.025-1.17c-0.068-0.601,0.979-0.638,0.68-1.356c-0.026-0.37-0.031-0.737,0.042-1.102
		c0.056-0.245,0.176-0.456,0.342-0.641c0.347-0.301,0.602-0.663,0.722-1.112c0.053-0.155,0.111-0.309,0.157-0.467
		c0.051-0.216,0.09-0.436,0.183-0.64c0.059-0.1,0.134-0.185,0.225-0.257c0.347-0.207,0.637-0.466,0.782-0.857
		c0.154-0.306,0.296-0.617,0.406-0.942c0.127-0.336,0.315-0.618,0.673-0.743c0.129-0.194,0.543,0.265,0.537-0.24
		c-0.011-0.05-0.018-0.095-0.027-0.143c-0.003-0.105,0.016-0.203,0.052-0.3c0.126-0.236,0.291-0.444,0.446-0.658
		c0.208-0.252,0.422-0.498,0.66-0.717c0.114-0.123,0.291-0.266-0.062-0.287c-0.296-0.017-0.582,0.104-0.882,0.09
		c-0.353-0.097-0.606-0.245-0.336-0.658c0.589-0.105,0.548-1.316,1.47-0.838C9.578,9.442,9.684,9.423,9.8,9.452
		c0.272,0.137,0.489,0.425,0.851,0.316c0.295-0.126,0.435-0.449,0.731-0.571c0.331-0.073,0.64-0.179,0.797-0.516
		c0.149-0.228,0.182-0.475,0.12-0.74c0.009-0.116,0.055-0.212,0.139-0.293c0.284-0.316,0.987,0.218,1.054-0.527
		c0.028-0.303,0.134-0.562,0.406-0.728c0.114-0.036,0.228-0.033,0.341,0.007c0.254,0.011,0.099,0.587,0.52,0.366
		c0.292-0.299,0.674-0.431,1.03-0.606c0.247-0.121,0.452-0.32,0.722-0.401c0.486,0.003,0.714-0.376,0.996-0.676
		c0.148-0.082,0.307-0.109,0.472-0.112c0.216-0.005,0.412-0.072,0.594-0.188c0.29-0.152,0.596-0.27,0.87-0.453
		c0.098-0.059,0.201-0.102,0.309-0.138c0.222-0.062,0.449-0.08,0.677-0.097c0.401-0.028,0.774-0.133,1.086-0.401
		c0.212-0.169,0.373-0.433,0.702-0.394c0.223,0.255,0.478,0.358,0.795,0.16c0.484,0,0.902-0.081,0.893-0.703
		c0.008-0.384-0.239-0.801,0.136-1.14c0.081-0.037,0.161-0.074,0.242-0.11c0.847-0.265,1.2,0.181,1.214,0.934
		c0.011,0.602,0.099,0.935,0.771,0.576c0.378-0.212,0.775-0.096,1.168-0.071c0.224,0.021,0.44,0.078,0.651,0.152
		c0.464,0.318,0.924,0.11,1.386-0.015c0.175-0.027,0.35-0.035,0.527-0.03c0.243,0.005,0.482,0.038,0.714,0.111
		c0.62,0.176,1.318,0.706,1.651-0.378c0.113-0.317,0.309-0.532,0.667-0.548c0.39,0.125,0.611,0.398,0.694,0.792
		c-0.045,0.348-0.033,0.677,0.316,0.884c0.374,0.372,0.668-0.014,0.994-0.107c0.278,0.041,0.457,0.315,0.749,0.309
		c0.228-0.081,0.375-0.359,0.668-0.281c0.209,0.179,0.286,0.449,0.46,0.653c0.229,0.24,0.425,0.528,0.815,0.504
		c0.111-0.014,0.222-0.012,0.333-0.003c0.111,0.02,0.215,0.058,0.313,0.112c0.411,0.366,0.825,0.725,1.437,0.44
		c0.116,0.015,0.219,0.058,0.31,0.133c0.134,0.549,0.35,1.021,1.007,1.084c0.345,0.19,0.659,0.428,1.001,0.624
		c0.278,0.234,0.398,0.664,0.851,0.678c0.163,0.011,0.318,0.046,0.457,0.134c0.191,0.183,0.274,0.447,0.472,0.625
		c0.271,0.261,0.622,0.422,0.881,0.699c0.187,0.272,0.3,0.594,0.552,0.822c0.196,0.184,0.354,0.404,0.557,0.582
		c0.176,0.125,0.376,0.204,0.565,0.304c0.227,0.152,0.402,0.358,0.58,0.563c0.062,0.095,0.103,0.198,0.129,0.308
		c0.061,0.436,0.329,0.714,0.698,0.914c0.249,0.152,0.484,0.321,0.627,0.587c0.106,0.21,0.187,0.429,0.232,0.661
		c-0.071,0.502,0.273,0.704,0.642,0.884c0.384,0.363,0.561,0.05,0.745-0.234c0.13-0.203,0.272-0.392,0.524-0.452
		c0.4,0.216,0.522,0.579,0.533,1.002c0.27,0.381,0.1,0.715-0.11,1.045c-0.166,0.343-0.834,0.259-0.71,0.84
		c0.098,0.179,0.258,0.307,0.391,0.459c0.163,0.268,0.335,0.531,0.506,0.796c0.039,0.106,0.059,0.214,0.066,0.326
		c0.112,0.564-0.525,1.398,0.582,1.601c0.081,0.084,0.129,0.185,0.152,0.299c-0.047,0.399,0.072,0.763,0.245,1.116
		c0.024,0.113,0.023,0.227,0.002,0.34c0.064,0.309-0.616,0.54-0.088,0.896c0.191,0.158,0.267,0.422,0.512,0.526
		c0.1,0.039,0.194,0.085,0.29,0.133c0.35,0.222,0.45,0.487,0.141,0.82c-0.259,0.172-0.562,0.311-0.526,0.706
		c-0.044,0.343,0.036,0.652,0.246,0.926c0.389,0.496-0.106,1.103,0.206,1.61c0.03,0.11,0.035,0.222,0.021,0.335
		c-0.502,0.45-0.226,0.922-0.038,1.391c0.019,0.165-0.022,0.32-0.087,0.469c-0.134,0.289-0.055,0.611-0.129,0.91
		c-0.155,0.346-0.176,0.693,0.001,1.04c0.044,0.165,0.041,0.328-0.008,0.491c-0.066,0.156-0.167,0.291-0.265,0.426
		c-0.24,0.418-0.032,0.885-0.141,1.316c-0.024,0.107-0.067,0.207-0.123,0.301c-0.24,0.152-0.274,0.411-0.33,0.66
		c-0.291,0.473,0.03,0.985-0.092,1.469c-0.032,0.114-0.084,0.218-0.154,0.314c-0.87,0.252-0.809,0.979-0.842,1.657
		c-0.025,0.114-0.066,0.223-0.12,0.328c-0.164,0.237-0.375,0.436-0.557,0.659c-0.472,0.382-0.559,0.99-0.859,1.472
		c-0.05,0.102-0.111,0.197-0.177,0.289c-0.309,0.441-0.729,0.8-0.953,1.305c-0.028,0.104-0.069,0.203-0.115,0.299
		c-0.208,0.318-0.287,0.691-0.431,1.037c-0.093,0.152-0.226,0.255-0.39,0.32c-0.592,0.046-0.94,0.369-1.07,0.94
		c-0.055,0.102-0.124,0.195-0.205,0.278c-0.264,0.211-0.494,0.458-0.714,0.715c-0.085,0.078-0.178,0.143-0.278,0.201
		c-0.394,0.203-0.852,0.353-0.766,0.943c0.394,0.561,0.699,1.154,0.682,1.863c-0.608,0.632-1.304,1.145-2.074,1.561
		c-0.851-0.142-0.232-1.075-0.754-1.395c-0.076-0.088-0.128-0.186-0.158-0.298c0.037-0.226,0.003-0.465,0.122-0.676
		c0.14-0.097,0.301-0.059,0.453-0.078c0.17-0.021,0.027,0.108,0.098-0.023c0.051-0.094-0.114,0.042-0.179-0.011
		c-0.719-0.125-0.292,0.734-0.733,0.846c-0.283,0.156-0.656,0.165-0.82,0.512c-0.077,0.15-0.165,0.292-0.288,0.409
		c-0.1,0.048-0.206,0.067-0.315,0.059c-0.3-0.092-0.595-0.092-0.881,0.056c-0.222,0.09-0.475,0.124-0.623,0.349
		c-0.053,0.092-0.113,0.176-0.176,0.261c-0.075,0.082-0.162,0.143-0.262,0.189c-0.387,0.119-0.89,0.062-0.962,0.65
		c-0.047,0.108-0.117,0.197-0.213,0.265c-0.243,0.054-0.457-0.03-0.666-0.136c-0.612-0.585-0.707,0.229-1.042,0.388
		c-0.296,0.173-0.641,0.015-0.947,0.139c-0.455,0.103-0.932,0.133-1.306,0.459c-0.192,0.137-0.395,0.254-0.635,0.283
		c-0.115,0.004-0.228-0.01-0.339-0.041c-0.478-0.228-0.913-0.231-1.246,0.25c-0.04,0.274,0.079,0.49,0.247,0.689
		c0.076,0.084,0.142,0.173,0.204,0.267c0.142,0.311,0.377,0.615,0.071,0.957c-0.239,0.019-0.478,0.039-0.717,0.058
		c-0.662,0.229-1.01-0.141-1.277-0.667c-0.08-0.246-0.083-0.495-0.025-0.744c0.035-0.232,0.274-0.464-0.005-0.694
		c-0.309-0.153-0.594-0.102-0.866,0.085c-0.091,0.058-0.184,0.109-0.277,0.161c-0.467,0.229-0.321,0.581-0.183,0.929
		C28.287,54.748,28.587,55.075,28.411,55.504z"/>
	<path style="fill:#322860;" d="M26.689,54.249c0.547,0.275,0.965,0.597,0.45,1.253c-1.05,0.112-2.074-0.088-3.1-0.254
		c-0.244-0.32-0.616,0.017-0.886-0.173c-0.225-0.029-0.45-0.059-0.674-0.088c-0.108-0.235,0.021-0.419,0.127-0.609
		c0.146-0.231,0.313-0.447,0.465-0.674c0.229-0.454,0.387-1.019,1.106-0.721c0.124,0.029,0.29,0.058,0.332,0.158
		c0.353,0.852,0.575,0.281,0.821-0.066c0.158-0.041,0.316-0.082,0.474-0.124C26.415,53.168,26.149,53.984,26.689,54.249z"/>
	<path style="fill:#2C215A;" d="M31.516,55.253c-0.087-0.339-0.174-0.679-0.261-1.018c-0.407-0.907,0.153-1.087,0.863-1.155
		c0.318,0.108,0.405,0.366,0.421,0.668c0.078-0.26-0.126-0.524,0.01-0.784c0.128-0.088,0.256-0.176,0.384-0.264
		c1.1-0.219,1.119,0.784,1.527,1.348c0.121,0.149,0.217,0.31,0.238,0.505C33.691,55.035,32.615,55.196,31.516,55.253z"/>
	<path style="fill:#32275F;" d="M47.28,44.178c0.093-0.101,0.187-0.201,0.28-0.302c0.416-0.102,0.878-0.067,1.218-0.402
		c0.364-0.188,0.689-0.223,0.894,0.222c-0.271,1.179-0.998,2.06-1.859,2.854c-0.61-0.357-1.404,0.171-1.969-0.41
		c-0.086-0.258-0.05-0.489,0.152-0.683l-0.021,0.024C46.362,44.999,47.349,45.117,47.28,44.178z"/>
	<path style="fill:#2D225C;" d="M49.672,43.696c-0.298-0.182-0.597-0.191-0.899-0.01c-0.925,0.329-0.894-0.177-0.712-0.815
		l-0.017,0.025c0.145-0.093-0.075-0.057,0.085-0.087c0.815-0.151,1.002-0.701,0.945-1.421c0.023-0.136,0.047-0.272,0.07-0.408
		c0.112-0.027,0.224-0.026,0.337,0.005c0.384,0.128,0.765,0.283,1.171,0.082c0.264-0.106,0.531-0.236,0.786,0.019
		C51.132,42.147,50.855,43.228,49.672,43.696z"/>
	<path style="fill:#342961;" d="M50.663,17.834c-0.221,0.021-0.408-0.043-0.549-0.221c0.148-0.444,0.462-0.769,0.783-1.089
		c0.092-0.356,0.184-0.712,0.276-1.067c0.748,0.542,0.751,0.542,0.605,1.408c-0.027,0.163-0.113,0.332,0.153,0.355
		c0.723,0.06,0.641,0.419,0.413,0.939c-0.281,0.639,0.64,0.208,0.639,0.644c0.271,1.032-0.704,0.625-1.068,0.926
		c-0.502-0.078-0.641-0.471-0.764-0.878c-0.005-0.063-0.007-0.127-0.006-0.191C51.181,18.27,50.86,18.088,50.663,17.834z"/>
	<path style="fill:#271C57;" d="M34.697,54.553c-0.125-0.128-0.251-0.256-0.376-0.383c-0.305-0.455-0.283-0.892,0.069-1.312
		c0.28-0.191,0.563-0.34,0.86-0.047c0.049,0.054,0.083,0.126,0.096,0.207c0.151-0.117,0.001-0.273,0.052-0.409
		c0.026-0.191,0.13-0.341,0.221-0.499c0.314-0.25,0.669-0.322,1.058-0.243c0.442,0.356,0.187,1.038,0.647,1.387
		c0.116,0.136,0.218,0.277,0.134,0.469C36.584,54.153,35.669,54.451,34.697,54.553z"/>
	<path style="fill:#3B3167;" d="M36.641,4.658c-0.286-0.172-0.218-0.462-0.24-0.721c-0.289-0.82,0.363-0.774,0.829-0.899
		c0.832-0.075,1.261,0.809,2.04,0.86c0.304,0.163,0.492,0.383,0.372,0.755c-0.121,0.234-0.319,0.373-0.562,0.456
		c-0.237,0.061-0.472,0.064-0.701-0.034c-0.156-0.066-0.311-0.135-0.477-0.175c-0.107-0.025-0.211-0.059-0.314-0.097
		C37.284,4.677,36.969,4.625,36.641,4.658z"/>
	<path style="fill:#453B6E;" d="M15.446,50.36c0.205,0.182,0.41,0.364,0.615,0.546c-0.323,0.66-0.892,0.924-1.586,0.988
		c-0.689-0.313-1.337-0.689-1.878-1.228c0.315-0.515,0.789-0.753,1.376-0.791c0.277,0.02,0.547,0.121,0.832,0.077
		C15.108,49.948,15.357,50.029,15.446,50.36z"/>
	<path style="fill:#2A1F59;" d="M46.021,46.247c0.624-0.057,1.333-0.616,1.792,0.303c-0.383,0.62-0.903,1.11-1.475,1.551
		c-0.758,0.342-0.838-0.587-1.348-0.715c-0.587-0.433-0.34-0.802,0.088-1.156l-0.006,0.014
		C45.388,46.234,45.705,46.158,46.021,46.247z"/>
	<path style="fill:#3F356A;" d="M4.148,36.051c-0.521,0.3-1.043,0.599-1.564,0.899c-0.144-0.869-1.111-1.578-0.508-2.593
		c0.168,0.088,0.335,0.176,0.503,0.264c0.301-0.269,0.42-0.937,1.053-0.482c0.173,0.078,0.347,0.155,0.52,0.233
		C3.94,34.931,3.386,35.489,4.148,36.051z"/>
	<path style="fill:#342A61;" d="M2.618,32.793c-0.232,0.498-0.589,0.953-0.543,1.549c-0.968-0.551-0.29-1.648-0.781-2.357
		c0.784-0.446-1.184-1.137,0.136-1.536c0.168-0.077,0.335-0.154,0.528-0.119c0.18,0.05,0.315,0.159,0.413,0.315
		c-0.049,0.405,0.142,0.732,0.354,1.051C2.741,32.066,2.755,32.437,2.618,32.793z"/>
	<path style="fill:#2C225B;" d="M29.727,54.612c0.278,0.355,0.583,0.669,1.073,0.7c-0.778,0.288-1.584,0.237-2.389,0.193
		c-0.173-0.319-0.346-0.638-0.518-0.958c0.122-0.469,0.031-1.024,0.535-1.34l-0.027,0.014c0.428-0.162,0.716,0.049,0.966,0.362
		C29.548,53.903,29.531,54.294,29.727,54.612z"/>
	<path style="fill:#3E3468;" d="M33.072,2.38c-0.278,0.068-0.443,0.258-0.551,0.511c-0.608-0.147-1.135,0.652-1.775,0.152
		c-0.09-0.076-0.172-0.16-0.249-0.249c-0.218-0.279-0.562-0.459-0.666-0.831c-0.01-0.129,0.014-0.25,0.07-0.366
		c0.349-0.25,0.707-0.244,1.073-0.041c0.998-0.031,1.966,0.132,2.905,0.468c-0.025,0.045-0.05,0.091-0.075,0.137
		C33.592,2.338,33.329,2.349,33.072,2.38z"/>
	<path style="fill:#3A2F65;" d="M40.378,50.109c0.048-0.02,0.098-0.029,0.149-0.027c0.318,0.034,0.555,0.218,0.782,0.421
		c0.309,0.34,0.371,0.748,0.324,1.186c-0.553,0.452-1.163,0.8-1.849,1.007c-0.435-0.179-0.508-0.53-0.45-0.944
		c0.068-0.305,0.169-0.601,0.282-0.893C39.787,50.526,39.936,50.168,40.378,50.109z"/>
	<path style="fill:#645D87;" d="M52.663,30.013c0.099-0.057,0.199-0.113,0.298-0.17c-0.176-0.497,0.096-0.702,0.524-0.805
		c0.514,0.041,0.832,0.45,1.253,0.668c-0.005,0.613,0.221,1.26-0.269,1.799c-0.53,0.175-0.904-0.15-1.301-0.404
		C52.971,30.753,52.706,30.435,52.663,30.013z"/>
	<path style="fill:#31275F;" d="M52.922,24.565c0.427-0.369,0.168-0.473-0.206-0.533c-0.199-0.272-0.073-0.564-0.057-0.851
		c0.019-0.182,0.059-0.359,0.13-0.529c0.093-0.174,0.232-0.292,0.422-0.348c0.372-0.067,0.609,0.104,0.757,0.43
		c0.111,0.167,0.221,0.335,0.332,0.502c0.206,0.349-0.171,0.694-0.008,1.042c0.003,0.385,0.875,0.988-0.272,1.086
		c-0.296,0.013-0.578-0.038-0.837-0.191C52.992,25.015,52.851,24.835,52.922,24.565z"/>
	<path style="fill:#382E64;" d="M13.951,6.451c-0.083,0.244-0.166,0.489-0.25,0.733c-0.295,0.502-0.928,0.19-1.288,0.533
		c0.011,0.081,0.01,0.161-0.004,0.241c-0.099,0.116-0.224,0.163-0.375,0.14c-0.415-0.231-0.384-0.541-0.158-0.887
		c-0.122-0.374,0.034-0.862,0.329-0.804c0.865,0.171,0.934-1.662,2.003-0.733C14.39,6.022,14.163,6.234,13.951,6.451z"/>
	<path style="fill:#31265F;" d="M19.363,52.877c0.086-0.127,0.171-0.255,0.257-0.382c0.299-0.225,0.406,0.071,0.573,0.207
		c0.482,0.569,0.946,1.157,1.597,1.555c0.07,0.186,0.067,0.359-0.087,0.505c-1.173-0.167-2.287-0.529-3.359-1.028
		C18.358,53.199,18.358,53.199,19.363,52.877z"/>
	<path style="fill:#2E245D;" d="M10.165,45.977c0.639-0.237,0.863,0.121,0.954,0.667c-0.001,0.4-0.197,0.713-0.441,1.008
		c-0.279,0.223-0.479,0.615-0.943,0.452c-0.952-0.09-0.979-0.644-0.683-1.361C9.099,46.015,9.784,46.216,10.165,45.977z"/>
	<path style="fill:#3C3368;" d="M51.691,36.833l-0.033-0.013c0.043-0.117,0.123-0.194,0.245-0.226
		c0.511,0.131,1.038,0.006,1.552,0.092c-0.197,0.926-0.519,1.805-0.989,2.628c-0.319-0.107-0.54-0.346-0.774-0.57
		C51.065,38.107,50.97,37.47,51.691,36.833z"/>
	<path style="fill:#3F356A;" d="M27.952,3.328c-0.168-0.071-0.336-0.142-0.505-0.213c-0.425-0.28-0.042-1.199-0.901-1.134
		c-0.345-0.041-0.682-0.115-1.005-0.246c-0.146-0.101-0.311-0.195-0.163-0.411c1.019,0.012,2.038,0.024,3.057,0.036
		c0.352,0.133,0.635,0.322,0.61,0.759C29.004,2.813,28.461,3.055,27.952,3.328z"/>
	<path style="fill:#42386C;" d="M19.363,52.877c-0.041,0.641-1.004,0.185-1.019,0.857c-0.577-0.106-1.105-0.325-1.577-0.676
		c-0.241-0.393-0.071-0.621,0.314-0.742c0.362-0.113,0.672-0.312,0.97-0.538c0.327-0.179,0.651-0.388,1.038-0.154
		C19.006,52.079,18.58,52.61,19.363,52.877z"/>
	<path style="fill:#443A6E;" d="M45.178,47.348c0.281-0.36,0.482-0.272,0.536,0.134c0.052,0.393,0.257,0.573,0.624,0.619
		c-0.37,0.517-0.822,0.94-1.398,1.221c-0.809-0.308-0.277-1.6-1.289-1.76C44.109,47.133,44.65,47.287,45.178,47.348z"/>
	<path style="fill:#4C4374;" d="M9.736,48.103c0.297-0.23,0.495-0.632,0.968-0.557c0.181-0.078,0.369-0.082,0.56-0.06
		c0.467,0.068,0.827,0.283,0.998,0.747c0.159,0.909-0.865,0.807-1.148,1.34C10.606,49.128,9.833,48.933,9.736,48.103z"/>
	<path style="fill:#382E65;" d="M41.633,51.689c-0.458-0.223-0.15-0.83-0.544-1.085c-0.065-0.054-0.096-0.115-0.094-0.184
		c0.002-0.073,0.011-0.109,0.026-0.109c0.195-0.273,0.328-0.59,0.573-0.83c0.199-0.144,0.427-0.153,0.659-0.147
		c0.239,0.004,0.557-0.103,0.471,0.348c-0.079,0.414-0.248,0.841,0.141,1.201C42.536,51.275,42.107,51.516,41.633,51.689z"/>
	<path style="fill:#463D70;" d="M13.951,6.451c0.086-0.259,0.171-0.517,0.257-0.776c0.016-0.483,0.152-0.892,0.691-1.012
		c0.527-0.117,0.257,0.435,0.415,0.524c0.341,0.193,0.11-0.386,0.387-0.372c0.293,0.071,0.463,0.309,0.672,0.496
		c0.145,0.182,0.29,0.365,0.181,0.62c-0.176,0.177-0.353,0.354-0.529,0.532c-0.477-0.207-0.978-0.651-1.357,0.135
		c-0.186,0.039-0.349,0-0.481-0.141L14.068,6.46L13.951,6.451z"/>
	<path style="fill:#392E65;" d="M37.458,53.724c-0.094-0.086-0.188-0.172-0.282-0.258c-0.305-0.522-0.331-1.039,0.028-1.549
		l-0.017,0.023c0.382-0.372,0.696-1.143,1.302-0.226c0.16,0.456,0.569,0.797,0.616,1.307C38.61,53.379,38.061,53.615,37.458,53.724z
		"/>
	<path style="fill:#484071;" d="M45.268,10.559c-0.612-0.071-0.571-0.534-0.581-0.966c0.011-0.177,0.103-0.309,0.231-0.421
		c0.215-0.161,0.444-0.305,0.65-0.479c0.128-0.104,0.271-0.174,0.436-0.198c0.249,0.204,0.498,0.409,0.747,0.613
		c0.191,0.201,0.253,0.438,0.201,0.707c-0.079,0.26-0.266,0.407-0.514,0.489C46.054,10.41,45.651,10.437,45.268,10.559z"/>
	<path style="fill:#2B205A;" d="M52.184,34.545c-0.011-0.061-0.01-0.123,0.003-0.183c0.393-0.502,0.959-0.328,1.469-0.379
		c0.12,0.003,0.228,0.043,0.323,0.117c0.046,0.832-0.105,1.623-0.478,2.371c-0.477-0.117-0.72-0.496-0.974-0.865
		c-0.087-0.138-0.162-0.283-0.231-0.432C52.199,34.975,52.183,34.761,52.184,34.545z"/>
	<path style="fill:#4F4777;" d="M7.74,46.266c-0.456-0.365-0.89-0.746-1.015-1.358c-0.234-0.287-0.076-0.473,0.163-0.639
		c0.416-0.171,0.85-0.231,1.298-0.199c0.324,0.148,0.596,0.379,0.887,0.579c0.159,0.689-0.612,0.744-0.807,1.193
		C8.129,46.031,7.987,46.214,7.74,46.266z"/>
	<path style="fill:#2D225B;" d="M6.945,44.44c-0.177,0.107-0.262,0.258-0.219,0.468c-0.724-0.306-0.703-0.877-0.534-1.5
		c-0.017-0.238,0.071-0.431,0.248-0.587c0.107-0.042,0.217-0.058,0.331-0.047c0.214,0.031,0.429,0.077,0.624-0.066
		c0.047-0.024,0.095-0.046,0.143-0.068c0.279-0.002,0.604-0.076,0.784,0.189c0.221,0.325-0.245,0.328-0.309,0.532
		C8.051,44.112,7.367,44.147,6.945,44.44z"/>
	<path style="fill:#3A3065;" d="M9.31,11.433c0.055,0.444-0.44,0.478-0.579,0.777c-0.326,0.071-0.651-0.027-0.977-0.006
		c-0.388,0.03-0.796,0.124-1.037-0.32c0.432-0.509,0.864-1.019,1.296-1.528c0.004,0.309,0.137,0.494,0.47,0.488
		C8.879,10.872,9.233,10.958,9.31,11.433z"/>
	<path style="fill:#443B6E;" d="M5.396,38.966c0.01,0.102,0.02,0.204,0.03,0.306c0.169,0.439-0.199,0.765-0.24,1.16
		c-0.093,0.294-0.211,0.569-0.545,0.665c-0.648,0.107-0.964-0.442-0.794-0.795c0.311-0.643-0.487-0.433-0.44-0.779
		c0.126-0.187,0.282-0.341,0.48-0.451C4.371,38.776,4.853,38.44,5.396,38.966z"/>
	<path style="fill:#3D3368;" d="M14.475,51.895c0.528-0.33,1.057-0.659,1.586-0.989c0.064,0.022,0.127,0.044,0.19,0.065
		c0.482-0.265,0.522,0.194,0.702,0.426c0.237,0.827-0.406,1.026-0.935,1.306C15.444,52.548,14.949,52.242,14.475,51.895z"/>
	<path style="fill:#3F366A;" d="M7.74,46.266c0.095-0.196,0.19-0.392,0.286-0.588c0.422-0.23,0.824-0.597,1.34-0.2
		c0.431-0.097,0.538,0.322,0.798,0.498c-0.236,0.45-0.76,0.481-1.111,0.765C8.373,47.251,8.012,46.884,7.74,46.266z"/>
	<path style="fill:#524A79;" d="M43.387,8.266c-0.164,0.002-0.328,0.004-0.492,0.006c0.13-0.417-0.602-0.671-0.216-1.137
		c0.211-0.313,0.422-0.626,0.716-0.871c0.562,0.352,1.144,0.678,1.555,1.222c-0.225,0.238-0.419,0.513-0.754,0.615
		C43.834,7.696,43.717,8.506,43.387,8.266z"/>
	<path style="fill:#3F356A;" d="M54.739,29.706c-0.649,0.412-0.756-0.208-1.017-0.534c-0.514-0.114-0.768-0.426-0.734-0.959
		c-0.01-0.098-0.02-0.196-0.03-0.293c0.116-0.231,0.319-0.333,0.558-0.386c0.623-0.01,0.919,0.42,1.189,0.886
		C54.716,28.848,54.727,29.277,54.739,29.706z"/>
	<path style="fill:#625A85;" d="M18.058,5.187c-0.161-0.005-0.321-0.01-0.482-0.015c-0.422,0.169-0.825,0.234-1.135-0.21
		c-0.081-0.163-0.095-0.334-0.051-0.509c0.159-0.265,0.312-0.535,0.392-0.84c0.426-0.07,0.782-0.408,1.249-0.323
		c0.328,0.108,0.473,0.344,0.478,0.678C18.393,4.386,18.241,4.792,18.058,5.187z"/>
	<path style="fill:#3E3469;" d="M54.705,28.419c-0.395-0.258-0.79-0.517-1.185-0.775c-0.454-0.164-0.553-0.445-0.284-0.85
		c0.175-0.15,0.381-0.253,0.571-0.379c0.23-0.146,0.378-0.343,0.382-0.628c0.439-0.305,0.522-0.005,0.526,0.334
		C54.726,26.886,54.71,27.653,54.705,28.419z"/>
	<path style="fill:#372C63;" d="M7.232,14.205c-0.157,0.262-0.315,0.524-0.472,0.785c-0.463-0.049-0.9-0.219-1.356-0.3
		c-0.106-0.053-0.204-0.117-0.297-0.191c-0.38-0.872,1.081-0.797,0.826-1.604c0.231,0.012,0.455,0.048,0.659,0.167
		C7.189,13.229,6.985,13.842,7.232,14.205z"/>
	<path style="fill:#443B6E;" d="M24.042,1.617c0.089,0.381,0.178,0.761,0.267,1.142c-0.235,0.538-0.686,0.676-1.221,0.657
		C22.25,3.378,22.409,2.73,22.35,2.214c0.006-0.123,0.05-0.233,0.129-0.328C22.984,1.7,23.496,1.56,24.042,1.617z"/>
	<path style="fill:#332860;" d="M51.841,38.704c0.358,0.05,0.599,0.219,0.625,0.61c-0.165,0.355-0.33,0.711-0.496,1.066
		c-0.259-0.002-0.495-0.085-0.721-0.203c-0.402-0.289-0.964-0.498-0.608-1.178c0.007-0.1,0.014-0.2,0.021-0.3
		C51.057,38.098,51.449,38.37,51.841,38.704z"/>
	<path style="fill:#3B3166;" d="M4.641,41.098c0.091-0.27,0.182-0.541,0.274-0.811c0.681-0.375,1.029,0.005,1.295,0.572
		c0.01,0.06,0.01,0.12-0.003,0.18c-0.017,0.338-0.298,0.563-0.37,0.878c-0.073,0.211-0.175,0.395-0.412,0.457
		C4.468,42.375,4.366,41.852,4.641,41.098z"/>
	<path style="fill:#3D3468;" d="M9.871,9.57C9.742,9.553,9.613,9.536,9.483,9.518c-0.232-1.074,0.605-1.289,1.3-1.619
		c0.29,0.061,0.445,0.306,0.654,0.478c0.124,0.119,0.222,0.254,0.275,0.419c0.029,0.274-0.16,0.407-0.349,0.541
		c-0.176,0.242-0.176,0.604-0.505,0.742C10.595,9.784,10.223,9.696,9.871,9.57z"/>
	<path style="fill:#453B6E;" d="M2.856,26.926c0.005,0.21,0.01,0.421,0.015,0.631c-0.021,0.057-0.042,0.114-0.063,0.172
		c-0.1,0.073-0.21,0.124-0.329,0.157c-0.242,0.052-0.487,0.058-0.734,0.045c-0.254-0.017-0.484-0.091-0.663-0.282
		c0.463-0.515-0.627-1.46,0.495-1.793c0.046,0.023,0.093,0.045,0.14,0.066c0.232,0.206,0.532,0.311,0.771,0.508
		C2.644,26.57,2.81,26.704,2.856,26.926z"/>
	<path style="fill:#443A6E;" d="M53.187,30.983c0.427,0.174,0.855,0.348,1.282,0.523c0.153,0.55,0.121,1.078-0.182,1.575
		c-0.43,0.203-0.627-0.149-0.882-0.366c-0.177-0.22-0.374-0.427-0.516-0.675c-0.05-0.339-0.147-0.678-0.006-1.018
		C52.975,30.935,53.076,30.919,53.187,30.983z"/>
	<path style="fill:#2F255D;" d="M50.642,14.456c-0.095,0.192-0.191,0.383-0.286,0.575c-0.302,0.209-0.618,0.279-0.96,0.102
		c-0.663-0.19-0.538-0.636-0.36-1.101c0.113-0.218,0.23-0.436,0.333-0.66c0.112-0.219,0.245-0.418,0.503-0.487
		C50.225,13.361,50.778,13.739,50.642,14.456z"/>
	<path style="fill:#3A3066;" d="M53.216,22.445c-0.091,0.111-0.183,0.222-0.274,0.332c-0.309,0.199-0.546,0.072-0.759-0.166
		c-0.065-0.105-0.067-0.213-0.017-0.323c0.004-0.093,0.008-0.186,0.013-0.279c0.024-0.314,0.129-0.614,0.149-0.929
		c0.082-0.29,0.261-0.472,0.568-0.512c0.245,0.037,0.424-0.107,0.611-0.226c0.167,0.625,0.525,1.2,0.486,1.878
		C53.808,22.544,53.388,22.067,53.216,22.445z"/>
	<path style="fill:#2E235C;" d="M5.424,42.373c0.088-0.139,0.177-0.277,0.265-0.416c0.283-0.749,0.664-0.409,1.042-0.093
		L6.708,41.84c0.566,0.522,0.306,0.846-0.263,1.096c0.006,0.206-0.051,0.378-0.253,0.472C5.097,43.684,5.16,43.103,5.424,42.373z"/>
	<path style="fill:#332961;" d="M11.115,49.572c-0.318-0.969,0.909-0.618,1.034-1.208c-0.001-0.215,0.026-0.421,0.169-0.595
		c0.09-0.063,0.189-0.085,0.297-0.061c0.016,0.206,0.031,0.413,0.047,0.619c0.266,0.33,0.821,0.545,0.449,1.129
		c-0.092,0.144-0.216,0.254-0.368,0.331c-0.291,0.114-0.582,0.234-0.852,0.398C11.632,49.981,11.374,49.777,11.115,49.572z"/>
	<path style="fill:#281D57;" d="M46.18,10.094c0.256-0.036,0.472-0.133,0.594-0.379c0.262-0.122,0.496-0.094,0.693,0.129
		c0.199,0.245,0.398,0.49,0.598,0.735c0.114,0.293-0.04,0.484-0.247,0.655c-0.413,0.182-0.832,0.323-1.286,0.14
		c-0.291-0.005-0.598,0.045-0.805-0.24C45.945,10.817,46.017,10.436,46.18,10.094z"/>
	<path style="fill:#564E7C;" d="M49.872,12.885c-0.087,0.178-0.174,0.356-0.261,0.534c-0.353,0.507-0.77,0.687-1.308,0.258
		c-0.175-0.154-0.35-0.308-0.524-0.463c0.204-0.432,0.65-0.668,0.876-1.083c0.117-0.142,0.259-0.245,0.445-0.275
		C49.505,12.088,49.755,12.436,49.872,12.885z"/>
	<path style="fill:#DADBE6;" d="M25.379,1.324c0.072,0.074,0.143,0.148,0.215,0.222c0.379,0.367,0.591,0.846,0.86,1.287
		c0.027,0.119,0.002,0.227-0.075,0.322c-0.092,0.458-0.31,0.726-0.824,0.551c0.252-0.423-1.326-0.246-0.303-1.095
		c0.395-0.327-0.136-1.143-0.968-1.105C24.604,1.179,24.993,1.261,25.379,1.324z"/>
	<path style="fill:#3A3066;" d="M37.229,3.038c-0.177,0.391-0.872,0.303-0.828,0.898c-0.316,0.127-0.105,0.643-0.516,0.7
		c-0.117-0.311-0.374-0.508-0.597-0.735c-0.194-0.219-0.381-0.44-0.283-0.766c0.123-0.298,0.327-0.502,0.653-0.566
		C36.247,2.507,36.749,2.734,37.229,3.038z"/>
	<path style="fill:#5B5380;" d="M49.099,11.856c-0.099,0.099-0.199,0.198-0.298,0.296c-0.73,0.75-1.282,0.354-1.797-0.28
		l0.013-0.002c-0.085-0.599,0.493-0.481,0.759-0.7c0.096-0.197,0.192-0.394,0.288-0.591C48.563,10.88,48.909,11.305,49.099,11.856z"
		/>
	<path style="fill:#3B3167;" d="M3.907,39.216c-0.098,0.215-0.277,0.297-0.5,0.309c-0.392-0.346,0.049-1.019-0.51-1.299
		c0.422-0.044,0.586-0.351,0.71-0.698c0.163-0.291,0.412-0.291,0.688-0.206C5.164,38.158,4.528,38.685,3.907,39.216z"/>
	<path style="fill:#494072;" d="M22.48,1.886l-0.009,0.073c0.052,0.493-0.017,0.965-0.26,1.403
		c-0.179,0.172-0.358,0.344-0.537,0.516C20.59,3.612,20.828,2.843,20.999,2.1C21.492,2.029,21.986,1.957,22.48,1.886z"/>
	<path style="fill:#443B6E;" d="M6.473,13.18c-0.231,0.001-0.438-0.043-0.54-0.285c-0.044-0.574,0.939-0.351,0.784-1.011
		c0.325,0.247,0.643,0.022,0.964-0.016c0.288,0.216,0.579,0.43,0.598,0.838c0.013,0.062,0.013,0.125,0.001,0.187
		C7.731,13.325,7.143,13.511,6.473,13.18z"/>
	<path style="fill:#322860;" d="M51.424,40.048c0.243,0.009,0.444,0.088,0.545,0.331c-0.077,0.311-0.127,0.642-0.532,0.706
		c-0.244,0.085-0.488,0.17-0.732,0.254c-0.48-0.098-0.893-0.272-0.94-0.85c0.024-0.303,0.182-0.509,0.457-0.63
		C50.65,39.753,51.043,39.866,51.424,40.048z"/>
	<path style="fill:#352A61;" d="M20.486,4.349c-0.265,0.013-0.529,0.026-0.794,0.04c-0.107-0.051-0.179-0.134-0.223-0.243
		c-0.096-0.308,0.079-0.644-0.096-0.945c-0.056-0.096-0.051-0.189,0.018-0.277C19.55,2.42,20.098,2.552,20.41,2.3
		C21.235,2.956,21.24,3.107,20.486,4.349z"/>
	<path style="fill:#3F366A;" d="M43.395,6.263c0.094,0.468-0.304,0.681-0.516,0.99c-0.286,0.237-0.604,0.047-0.908,0.068
		c-0.296-0.075-0.469-0.268-0.54-0.559c-0.006-0.113,0.012-0.223,0.051-0.329c0.177-0.295,0.446-0.492,0.719-0.687
		c0.051-0.021,0.103-0.04,0.155-0.059C42.794,5.716,43.091,5.997,43.395,6.263z"/>
	<path style="fill:#433A6D;" d="M41.596,6.457c-0.001,0.089-0.001,0.177-0.002,0.266c-0.181,0.103-0.306-0.001-0.431-0.111
		c-0.348-0.311-0.995-0.33-0.982-0.998c0.097-0.505,0.458-0.681,0.914-0.74c0.508,0.136,0.985,0.321,1.264,0.813
		c0,0,0.021-0.017,0.021-0.017C42.201,6.016,41.763,6.101,41.596,6.457z"/>
	<path style="fill:#382E64;" d="M52.95,20.67c-0.168,0.17-0.336,0.341-0.504,0.511c-0.262,0.122-0.407-0.013-0.513-0.234
		c-0.004-0.102-0.007-0.204-0.011-0.305c-0.301-0.344-0.076-0.684,0.007-1.025c0.055-0.656,1.036-0.112,1.056-0.814
		c0.256,0.332,0.315,0.7,0.203,1.099C53.072,20.146,53.256,20.484,52.95,20.67z"/>
	<path style="fill:#31265F;" d="M53.603,32.559c0.176,0.243,0.367,0.466,0.685,0.522c0.011,0.374,0.131,0.781-0.309,1.018
		l-0.116,0.005L53.746,34.1c-1.092,0.147-1.153-0.669-1.306-1.398c0.072-0.047,0.144-0.094,0.215-0.141
		C52.97,32.174,53.287,32.6,53.603,32.559z"/>
	<path style="fill:#291D58;" d="M52.7,35.384c0.267,0.362,0.534,0.723,0.8,1.085c0.037,0.083,0.021,0.155-0.046,0.216
		c-0.466,0.483-0.994,0.273-1.516,0.136C51.773,36.121,51.744,35.491,52.7,35.384z"/>
	<path style="fill:#2C225B;" d="M28.928,2.086c-0.164-0.242-0.328-0.485-0.492-0.727c0.335-0.006,0.669-0.013,1.004-0.019
		c0.174,0.14,0.368,0.253,0.533,0.405c0.008,0.125,0.016,0.251,0.024,0.376c0.126,0.227,0.351,0.407,0.332,0.702
		c-0.039,0.224-0.199,0.37-0.342,0.527c-0.198-0.007-0.396-0.014-0.594-0.021C29.053,2.984,28.829,2.595,28.928,2.086z"/>
	<path style="fill:#32275F;" d="M16.018,52.704c-0.034-0.6,1.025-0.521,0.778-1.253c0.063-0.091,0.15-0.14,0.259-0.154
		c0.266-0.001,0.533-0.035,0.796,0.042c0.194,0.134,0.327,0.295,0.251,0.552c0.013,0.548-0.449,0.579-0.793,0.652
		c-0.324,0.069-0.577,0.112-0.542,0.516C16.517,52.94,16.267,52.822,16.018,52.704z"/>
	<path style="fill:#362C63;" d="M19.643,4.277c0,0,0.049,0.111,0.049,0.112c0,0-0.044,0.003-0.044,0.003
		c-0.37,0.248-0.772,0.183-1.174,0.117c-0.153-0.102-0.302-0.205-0.117-0.405c-0.109-0.271-0.217-0.543-0.326-0.814
		c0.402-0.312,0.803-0.631,1.36-0.367c0,0-0.034,0.08-0.034,0.08C19.754,3.361,19.349,3.897,19.643,4.277z"/>
	<path style="fill:#5B5380;" d="M5.107,14.499c0.112-0.008,0.223-0.015,0.335-0.023c1.02,0.38,0.808,0.942,0.231,1.558l0.028-0.017
		c-0.301,0.204-0.645,0.054-0.963,0.118c-0.114,0.002-0.217-0.032-0.306-0.103C3.774,15.132,4.903,15.019,5.107,14.499z"/>
	<path style="fill:#291E58;" d="M39.106,53.02c-0.338-0.346-0.837-0.575-0.844-1.162c0.199-0.212,0.187-0.539,0.404-0.741
		c0.097-0.068,0.204-0.109,0.321-0.123c0.118,0.006,0.229,0.039,0.331,0.1c0.185,0.182,0.201,0.411,0.184,0.65
		c-0.058,0.363,0.103,0.66,0.283,0.952C39.558,52.804,39.332,52.912,39.106,53.02z"/>
	<path style="fill:#43396D;" d="M41.094,4.874c-0.191,0.355-0.703,0.409-0.802,0.851c-0.075,0.091-0.137,0.079-0.189-0.022
		c-0.118-0.012-0.236-0.025-0.353-0.037c-0.399-0.095-0.987,0.024-0.814-0.719c0.206-0.102,0.413-0.204,0.619-0.306
		c0.224-0.182,0.424-0.431,0.767-0.259C40.621,4.479,40.927,4.568,41.094,4.874z"/>
	<path style="fill:#2E235C;" d="M12.57,49.637c0.124-0.114,0.248-0.229,0.372-0.343c0.254-0.118,0.504-0.193,0.735,0.046
		c0.133,0.086,0.267,0.172,0.4,0.258c0.299,0.14,0.294,0.317,0.065,0.523c-0.623-0.122-0.972,0.528-1.545,0.546
		c-0.163-0.09-0.325-0.18-0.488-0.27C11.963,49.962,12.34,49.844,12.57,49.637z"/>
	<path style="fill:#281C57;" d="M4.652,18.378c-0.09,0.169-0.18,0.337-0.27,0.506c-0.097,0.071-0.204,0.096-0.322,0.077
		c-0.325-0.104-0.661-0.181-0.949-0.38c-0.406-0.729,0.617-0.931,0.565-1.53c0.107-0.064,0.213-0.061,0.32,0
		C4.43,17.387,4.729,17.79,4.652,18.378z"/>
	<path style="fill:#3D3468;" d="M35.658,2.569c-0.096,0.264-0.281,0.438-0.545,0.531c-0.238,0.169-0.438,0.41-0.767,0.406
		c-0.25-0.027-0.444-0.143-0.562-0.37c-0.055-0.339-0.123-0.679,0.021-1.015l0.076-0.098C34.491,2.145,35.155,2.094,35.658,2.569z"
		/>
	<path style="fill:#30255E;" d="M46.004,8.494c-0.084,0.095-0.168,0.191-0.252,0.286c-0.327,0.101-0.63,0.288-0.989,0.28
		c-0.317,0.029-0.613-0.022-0.875-0.216c-0.153-0.251-0.141-0.475,0.104-0.663c0.383-0.062,0.53-0.558,0.965-0.524
		C45.43,7.781,45.785,8.053,46.004,8.494z"/>
	<path style="fill:#40366B;" d="M3.35,20.161c-0.745-0.325-1.416-0.664-0.271-1.365c0.434-0.163,0.723,0.007,0.918,0.396
		c0.03,0.41,0.115,0.825-0.076,1.223C3.636,20.545,3.476,20.392,3.35,20.161z"/>
	<path style="fill:#3F356A;" d="M3.627,22.77c-0.107,0.08-0.214,0.159-0.321,0.239c-0.209,0.285-0.477,0.41-0.83,0.311
		c-0.518-0.299-0.955-0.643-0.742-1.346c0.185-0.406,0.523-0.326,0.854-0.271c0.097-0.077,0.2-0.084,0.307-0.023
		C3.125,22.053,3.37,22.416,3.627,22.77z"/>
	<path style="fill:#261B56;" d="M3.88,17.053c-0.068-0.002-0.136-0.002-0.204-0.002c-0.19-0.668,0.381-0.77,0.755-1.019
		c0.054,0.026,0.108,0.028,0.164,0.004c0.576-0.077,0.771,0.409,1.077,0.73c-0.101,0.102-0.201,0.204-0.302,0.305
		C4.862,18.02,4.373,17.394,3.88,17.053z"/>
	<path style="fill:#E3E4ED;" d="M20.486,4.349c-0.076-0.283-0.19-0.534,0.112-0.805C21.126,3.072,20.84,2.661,20.41,2.3
		c0.146-0.214,0.352-0.252,0.589-0.2c0.379,0.534-0.065,1.381,0.676,1.778C21.351,4.218,21.021,4.541,20.486,4.349z"/>
	<path style="fill:#40366A;" d="M2.814,21.694c-0.075,0.005-0.15,0.008-0.225,0.009c-0.099-0.401-0.837-0.544-0.433-1.161
		c0.29-0.443,0.588-0.419,0.953-0.14c0.36,0.268,0.423,0.629,0.328,1.041C3.29,21.677,3.127,21.873,2.814,21.694z"/>
	<path style="fill:#332860;" d="M2.092,24.541c-0.47-0.379-1.155-0.712-0.301-1.38c0.346-0.206,0.574,0.079,0.841,0.201
		c0.183-0.002,0.369-0.015,0.515,0.13c0.033,0.476-0.276,0.788-0.541,1.121C2.421,24.693,2.247,24.683,2.092,24.541z"/>
	<path style="fill:#3D3368;" d="M11.316,8.525c-0.379-0.037-0.476-0.314-0.533-0.625c-0.175-1.085,0.592-0.674,1.092-0.687
		c0.018,0.305-0.036,0.636,0.31,0.816C12.131,8.606,11.679,8.488,11.316,8.525z"/>
	<path style="fill:#32275F;" d="M1.082,27.649c0.255,0.01,0.51,0.02,0.764,0.03c0.126,0.089,0.278,0.143,0.376,0.272
		c0.144,0.234,0.249,0.478,0.182,0.763c-0.092,0.212-0.243,0.374-0.425,0.512c-0.098,0.064-0.205,0.102-0.32,0.12
		c-0.219-0.04-0.493-0.032-0.361-0.394C1.37,28.495,0.794,28.144,1.082,27.649z"/>
	<path style="fill:#2E235C;" d="M1.3,28.954c0.167,0.092,0.334,0.184,0.501,0.277c0.468,0.057,0.598,0.416,0.707,0.793
		c-0.027,0.256-0.042,0.524-0.418,0.47c-0.22-0.015-0.44-0.03-0.661-0.046C1.552,29.936,0.424,29.532,1.3,28.954z"/>
	<path style="fill:#271C57;" d="M2.588,25.392c0.002,0.058,0.001,0.115-0.004,0.173c-0.002,0.172-0.055,0.326-0.164,0.461
		c-0.364,0.278-0.616,0.059-0.858-0.196c0,0,0.015,0.026,0.015,0.026c-0.271-0.481-0.856-1.013,0.202-1.285
		C2.133,24.761,2.497,24.942,2.588,25.392z"/>
	<path style="fill:#3F356A;" d="M16.601,4.295c-0.026,0.191-0.052,0.383-0.078,0.574c0.002,0.233-0.039,0.445-0.281,0.555
		C15.857,5.403,15.755,5.13,15.7,4.815c-0.483-0.726,0.396-0.625,0.576-0.949C16.682,3.784,16.666,4.021,16.601,4.295z"/>
	<path style="fill:#291E58;" d="M54.189,25.787c0.619,0.434,0.229,0.631-0.192,0.82c-0.528,0.095-0.666-0.198-0.646-0.648
		c0.426-0.397-0.328-0.18-0.217-0.414c-0.062-0.19-0.045-0.358,0.133-0.482c0.293-0.003,0.594-0.028,0.754,0.302
		C54.077,25.505,54.133,25.646,54.189,25.787z"/>
	<path style="fill:#B4B3C7;" d="M3.328,21.433c0.199-0.401-0.228-0.67-0.219-1.031c0.08-0.08,0.161-0.161,0.241-0.241
		c0.168,0.082,0.337,0.165,0.505,0.247C4.01,20.28,4.09,19.997,4.383,20.15c0.624,0.937-0.746,0.719-0.749,1.293
		C3.529,21.528,3.427,21.52,3.328,21.433z"/>
	<path style="fill:#AFADC4;" d="M2.588,25.392c-0.616,0.067-0.552-0.535-0.809-0.822c0.104-0.01,0.209-0.02,0.313-0.03
		c0.155-0.001,0.31-0.001,0.465-0.002c0.194-0.151,0.382-0.137,0.567,0.017C3.642,25.281,3.12,25.34,2.588,25.392z"/>
	<path style="fill:#231854;" d="M21.703,54.762c0-0.169,0-0.338,0-0.508c-0.119-0.433,0.144-0.552,0.493-0.602
		c0.378,0.158,0.646,0.389,0.554,0.853c-0.09,0.161-0.18,0.322-0.271,0.482C22.16,55.118,21.931,54.943,21.703,54.762z"/>
	<path style="fill:#F5F8FC;" d="M2.568,23.386c-0.259-0.075-0.517-0.15-0.776-0.225c-0.238-0.385-0.408-0.773-0.056-1.186
		c-0.335,0.823,0.813,0.8,0.816,1.431L2.568,23.386z"/>
	<path style="fill:#B2B1C6;" d="M54.292,24.278c-0.377-0.033-0.784-0.071-0.214-0.493c0.207-0.154,0.165-0.361,0.223-0.549
		C54.546,23.585,54.756,23.935,54.292,24.278z"/>
	<path style="fill:#3E3469;" d="M53.216,22.445c0.004-0.205-0.564-0.68,0.231-0.507c0.194,0.042,0.365,0.184,0.547,0.28
		c-0.008,0.172-0.017,0.344-0.025,0.515C53.718,22.637,53.467,22.541,53.216,22.445z"/>
	<path style="fill:#30255E;" d="M52.95,20.67c0.023-0.274-0.042-0.574,0.237-0.769c0.107,0.146,0.213,0.293,0.32,0.439
		c-0.096,0.211,0.115,0.546-0.218,0.639C53.212,21.001,53.065,20.78,52.95,20.67z"/>
	<path style="fill:#574F7D;" d="M29.973,1.745c-0.34,0.079-0.49-0.093-0.533-0.405c0.528-0.042,1.061-0.122,1.535,0.215
		C30.639,1.609,30.261,1.437,29.973,1.745z"/>
	<path style="fill:#CACBDA;" d="M3.938,19.37C3.662,19.164,3.5,18.787,3.08,18.797c-0.017-0.076-0.007-0.148,0.032-0.215
		c0.412-0.164,0.774-0.15,1.021,0.283C4.313,19.127,4.326,19.325,3.938,19.37z"/>
	<path style="fill:#483F71;" d="M23.153,55.075c0.184-0.08,0.395-0.128,0.546-0.25c0.158-0.127,0.291-0.356,0.482-0.133
		c0.163,0.19-0.074,0.372-0.143,0.555C23.724,55.291,23.423,55.262,23.153,55.075z"/>
	<path style="fill:#544C7A;" d="M40.321,4.382c-0.256,0.086-0.512,0.173-0.768,0.259c-0.095-0.248-0.189-0.496-0.284-0.744
		C39.692,3.902,40,4.157,40.321,4.382z"/>
	<path style="fill:#ACAAC1;" d="M12.57,49.637c-0.154,0.253-0.307,0.507-0.461,0.76c-0.136-0.005-0.244-0.04-0.218-0.212
		C11.753,49.552,12.155,49.586,12.57,49.637z"/>
	<path style="fill:#5F5884;" d="M47.467,9.844c-0.231-0.043-0.462-0.085-0.693-0.128c-0.008-0.203-0.015-0.406-0.023-0.608
		C47.075,9.269,47.314,9.515,47.467,9.844z"/>
	<path style="fill:#F5F7FC;" d="M44.957,7.658c-0.257,0.186-0.514,0.373-0.772,0.559c-0.081-0.047-0.111-0.099-0.091-0.156
		c0.021-0.059,0.043-0.089,0.068-0.089c0.219-0.234,0.422-0.493,0.789-0.488C44.959,7.543,44.961,7.6,44.957,7.658z"/>
	<path style="fill:#E9EBF2;" d="M16.601,4.295c-0.037-0.197-0.093-0.379-0.324-0.428c0.11-0.202,0.29-0.262,0.506-0.253
		C16.762,3.851,17.137,4.194,16.601,4.295z"/>
	<path style="fill:#01B6F8;" d="M21.912,35.901c0.54,2.055,1.753,2.516,3.348,1.273c1.781,0.121,3.562,0.203,5.348,0.156
		c0.055,0.048,0.109,0.097,0.163,0.146c0.017,1.062-0.058,2.11-0.503,3.097c-3.079,0.256-5.985-0.223-8.67-1.868
		c-2.912-1.785-4.678-4.372-5.596-7.606c-0.314-1.773-0.675-3.546,0.019-5.315c0.597-2.118,1.394-4.13,2.833-5.854
		c0.59-0.708,1.326-1.211,2.019-1.779c0.267-0.219,0.606-0.35,0.919-0.018c0.08,1.071-0.007,2.144,0.043,3.215
		c0.032,0.685-0.207,1.23-0.602,1.776c-2.017,2.788-2.092,5.804-0.555,8.739C21.37,33.183,21.976,34.405,21.912,35.901z"/>
	<path style="fill:#00B6F8;" d="M34.38,20.151c-0.775-1.341-1.24-1.498-2.819-0.952c-1.854-0.216-3.716-0.257-5.58-0.219
		c-0.058-0.044-0.115-0.089-0.172-0.135c-0.043-1.185,0.221-2.298,0.778-3.343c0.068-0.011,0.136-0.023,0.205-0.035
		c6.828-0.406,12.309,3.433,13.614,9.869c1.022,5.044-0.53,9.343-4.664,12.572c-0.342,0.267-0.729,0.678-1.231,0.217
		c-0.033-0.844-0.01-1.688-0.013-2.531c0.044-0.327,0.278-0.526,0.51-0.714c3.123-2.524,3.764-7.141,2.306-10.849
		C36.696,22.464,35.419,21.398,34.38,20.151z"/>
	<path style="fill:#93F0FE;" d="M29.245,42.903c-1.474,3.87-10.011,3.937-12.435-0.592c-1.082-2.021-1.609-4.152-1.612-6.429
		c-0.056-0.155-0.004-0.252,0.157-0.289c0.546,0.15,0.796,0.626,1.095,1.03c2.859,3.857,6.663,5.873,11.483,5.936
		C28.391,42.565,28.887,42.485,29.245,42.903z"/>
	<path style="fill:#00B4F6;" d="M34.38,20.151c2.09,1.142,3.211,3.034,3.723,5.239c0.68,2.926,0.352,5.765-1.473,8.266
		c-0.514,0.705-1.037,1.479-1.974,1.739c-0.3-0.382-0.152-0.828-0.153-1.242c-0.013-3.989-0.004-7.978-0.012-11.968
		c-0.001-0.423,0.093-0.859-0.105-1.267C34.383,20.663,34.381,20.407,34.38,20.151z"/>
	<path style="fill:#00ADF0;" d="M30.934,20.684c-0.007,5.222-0.012,10.443-0.025,15.665c-0.001,0.378,0.091,0.774-0.137,1.126
		c0,0-0.06-0.033-0.06-0.033c-0.513-0.694-0.313-1.494-0.337-2.26c-0.018-0.8-0.014-1.601,0.003-2.399
		c-0.005-0.673,0.1-1.35-0.06-2.201c-1.235,0.616-2.467,0.967-3.731,0.172c-0.319-0.201-0.406,0.146-0.412,0.418
		c-0.011,0.511,0.013,1.021,0.016,1.534c0.017,0.708,0.029,1.414-0.002,2.121c-0.078,0.417,0.058,0.947-0.566,1.075
		c-0.004-5.225-0.01-10.45-0.009-15.676c0-0.466-0.047-0.945,0.195-1.38c0,0,0.058,0.029,0.058,0.029
		c0.567,0.829,0.297,1.762,0.336,2.655c0.05,0.808-0.313,1.764,0.16,2.396c0.536,0.716,1.413-0.097,2.162-0.011
		c0.639,0.074,1.271,0.107,1.881,0.468c-0.002-0.945-0.043-1.803-0.011-2.663C30.466,21.318,30.355,20.821,30.934,20.684z"/>
	<path style="fill:#93F0FE;" d="M28.421,12.663c3.892-3.379,10.682-1.507,12.057,3.541c0.281,1.03,0.67,2.036,0.629,3.129
		c0.095,0.125,0.087,0.243-0.025,0.353c-0.573,0.059-0.824-0.377-1.12-0.738c-2.748-3.353-6.239-5.322-10.588-5.717
		C28.998,13.197,28.446,13.337,28.421,12.663z"/>
	<path style="fill:#92EEFC;" d="M15.418,10.321c1.959,1.504,4.048,2.847,5.782,4.633c0.297,0.523-0.023,0.833-0.427,1.019
		c-2.023,0.936-3.362,2.583-4.615,4.335c-0.55,0.77-0.591,0.76-1.043,0.204c0.004-3.027-0.01-6.051,0.014-9.074
		C15.133,11.063,14.872,10.572,15.418,10.321z"/>
	<path style="fill:#93F0FE;" d="M41.294,35.144c0,3.244,0,6.489,0,9.937c-1.885-1.474-3.643-2.849-5.402-4.225
		c-0.147-0.361,0.088-0.57,0.331-0.738c1.77-1.223,3.249-2.718,4.352-4.575C40.726,35.289,40.931,35.056,41.294,35.144z"/>
	<path style="fill:#00B1F4;" d="M21.912,35.901c0.087-2.348-2.044-3.792-2.39-6.025c-0.422-2.727-0.14-5.172,1.708-7.299
		c0.337-0.388,0.486-0.775,0.475-1.276c-0.025-1.074-0.017-2.149-0.023-3.223c-0.168-0.164-0.223-0.366-0.203-0.594
		c0.016-0.108,0.053-0.21,0.107-0.305c0.076-0.084,0.171-0.123,0.285-0.11C21.885,23.346,21.899,29.624,21.912,35.901z"/>
	<path style="fill:#00B2F5;" d="M25.851,21.698c0.005-0.941,0.01-1.882,0.015-2.822c1.928-0.414,3.84-0.562,5.694,0.324
		c-0.295,0.459-0.534,0.941-0.626,1.485c-0.297,0.287-0.152,0.675-0.231,1.012C29.086,21.956,27.469,21.958,25.851,21.698z"/>
	<path style="fill:#41CFFB;" d="M16.27,31.276c0.816,1.484,1.295,3.112,2.443,4.464c2.828,3.331,6.395,4.721,10.669,4.525
		c0.371-0.017,0.766-0.309,0.888,0.309c-0.021,0.082-0.042,0.164-0.064,0.246c-1.541,0.303-3.083,0.478-4.647,0.138
		c-0.709-0.154-1.387-0.436-2.116-0.496c-0.12-0.025-0.234-0.069-0.339-0.131c-1.099-0.395-2.048-1.076-3.074-1.613
		c-0.103-0.057-0.196-0.128-0.281-0.21c-0.377-0.517-0.837-0.96-1.269-1.429c-0.083-0.085-0.159-0.175-0.235-0.267
		c-1.438-1.303-2.362-2.893-2.687-4.818c0.037-0.182,0.122-0.34,0.246-0.478C15.931,31.384,16.081,31.292,16.27,31.276z"/>
	<path style="fill:#00B3F6;" d="M25.623,35.902c0.323-0.285,0.179-0.675,0.229-1.021c1.635-0.277,3.259-0.371,4.846,0.258
		c0.005,0.768,0.01,1.535,0.015,2.303c-1.839,0.355-3.672,0.586-5.451-0.269C25.381,36.75,25.502,36.326,25.623,35.902z"/>
	<path style="fill:#6EE1FC;" d="M23.234,40.016c0.022,0.09,0.044,0.179,0.067,0.269c1.879,0.572,3.78,0.969,5.765,0.78
		c0.326-0.031,0.69-0.018,0.943,0.28c-0.059,0.478-0.222,0.91-0.565,1.262c-4.269,0.193-8.035-1.128-11.198-3.962
		c-1.327-1.189-2.474-2.607-3.109-4.34c-0.034-0.459-0.025-0.919-0.007-1.378c0.627-0.348,0.657,0.253,0.784,0.55
		c0.385,0.894,0.903,1.703,1.448,2.499c0.325,0.469,0.636,0.952,1.148,1.252c0.524,0.353,0.925,0.841,1.38,1.269l0,0
		C20.899,39.238,21.852,40.098,23.234,40.016z"/>
	<path style="fill:#86EAFD;" d="M15.292,34.367c1.606,2.455,3.421,4.636,6.085,6.107c2.215,1.223,4.573,1.564,6.979,1.892
		c0.371,0.05,0.785-0.108,1.089,0.241c-0.067,0.098-0.133,0.197-0.2,0.295c-3.452,0.236-6.612-0.603-9.492-2.531
		c-1.847-1.237-3.195-2.933-4.459-4.715C15.019,35.227,15.02,34.797,15.292,34.367z"/>
	<path style="fill:#77E5FD;" d="M27.369,13.924c0.14-0.174,0.28-0.348,0.42-0.523c1.82-0.577,3.559-0.015,5.227,0.545
		c3.438,1.155,6.072,3.397,8.021,6.448c0.072,0.095,0.149,0.188,0.234,0.274c0.008,0.513,0.016,1.027,0.023,1.54
		c-0.702-0.045-0.711-0.866-1.241-1.106c-0.085-0.084-0.155-0.18-0.212-0.284c-0.724-1.442-1.624-2.724-3.132-3.457
		c-0.183-0.068-0.356-0.152-0.519-0.258c-2.163-1.739-4.689-2.402-7.403-2.57C28.283,14.501,27.527,14.843,27.369,13.924z"/>
	<path style="fill:#41D0FB;" d="M15.292,34.367c0,0.43,0,0.859,0.001,1.289c-0.023,0.079-0.055,0.155-0.096,0.227
		c-0.042-0.291-0.121-0.582-0.121-0.872c-0.007-7.937-0.009-15.874,0-23.811c0-0.319-0.151-0.677,0.128-0.964
		c0.019-0.02,0.083-0.011,0.117,0.003c0.037,0.016,0.065,0.054,0.097,0.082c-0.371,1.252-0.142,2.533-0.161,3.799
		c-0.034,2.258,0.014,4.518,0.027,6.777c0.485,0.583,0.258,1.278,0.306,1.929c-0.113,0.721-0.161,1.455-0.273,1.941
		c0.002-1.234,0.616-2.506,1.329-3.735c0.261-0.45,0.483-1.036,1.217-0.814c0.214,0.415-0.026,0.747-0.219,1.071
		c-1.757,2.946-2.339,6.091-1.641,9.463c0.051,0.247,0.012,0.512,0.013,0.768c-0.085,0.085-0.171,0.17-0.256,0.255
		c-0.514,0.027-0.403-0.261-0.327-0.555c-0.201,0.519,0.329,1.133-0.149,1.625C15.288,33.354,15.29,33.86,15.292,34.367z"/>
	<path style="fill:#87EBFE;" d="M41.082,20.67c-0.872-0.697-1.377-1.703-2.118-2.514c-3.006-3.289-6.795-4.71-11.175-4.755
		c0.21-0.246,0.421-0.492,0.631-0.738c1.158,0.229,2.324,0.427,3.473,0.694c3.484,0.808,6.222,2.765,8.426,5.533
		c0.211,0.265,0.468,0.493,0.704,0.738C41.323,19.959,41.238,20.312,41.082,20.67z"/>
	<path style="fill:#3FCFFB;" d="M26.841,14.945c0.012-0.207,0.057-0.398,0.255-0.513c3.284-0.044,6.381,0.554,9.055,2.618
		c1.099,0.886,2.295,1.687,2.803,3.108c0.014,0.202-0.03,0.386-0.166,0.541c-0.581,0.079-0.827-0.409-1.099-0.738
		c-1.93-2.331-4.443-3.628-7.35-4.257c-0.625-0.253-1.281-0.205-1.933-0.205c-0.208,0-0.416,0-0.625-0.002
		C27.415,15.401,26.83,15.68,26.841,14.945z"/>
	<path style="fill:#74E1FA;" d="M15.284,22.965c0-0.689,0-1.378,0.001-2.067c0.773-0.992,1.498-2.026,2.331-2.964
		c0.842-0.949,1.789-1.806,3.047-2.204c0.383-0.121,0.517-0.407,0.537-0.775c0.176,0.113,0.351,0.226,0.527,0.339
		c0.14,0.236,0.11,0.483,0.045,0.732c-2.567,1.526-4.502,3.626-5.783,6.33C15.853,22.643,15.746,23.025,15.284,22.965z"/>
	<path style="fill:#7DE7FD;" d="M41.294,35.144c-1.008,1.486-2.126,2.871-3.409,4.143c-0.618,0.613-1.544,0.783-1.993,1.57
		c-0.248-0.196-0.496-0.393-0.744-0.589c-0.072-0.504,0.349-0.664,0.653-0.849c2.158-1.317,3.634-3.234,4.835-5.403
		c0.153-0.276,0.186-0.698,0.657-0.676C41.293,33.941,41.294,34.543,41.294,35.144z"/>
	<path style="fill:#59D9FC;" d="M36.17,17.308c-2.6-1.663-5.392-2.689-8.53-2.602c-0.179,0.005-0.363-0.178-0.544-0.274
		c0.009-0.213,0.015-0.428,0.273-0.508c0.584,0.546,1.3,0.204,1.952,0.279c2.375,0.274,4.654,0.821,6.622,2.267
		c0.198,0.145,0.329,0.382,0.492,0.576C36.404,17.191,36.316,17.279,36.17,17.308z"/>
	<path style="fill:#1D6AA4;" d="M34.384,20.918c0.378,0.398,0.228,0.895,0.231,1.351c0.022,4.375,0.029,8.751,0.04,13.126
		c0,0.947,0,1.894,0,2.841c0.154,0.14,0.214,0.323,0.244,0.521c0.026,0.197,0.019,0.393-0.016,0.589
		c-0.047,0.198-0.128,0.373-0.328,0.462c-1-0.874-0.181-1.874-0.184-2.812c-0.015-5.017-0.007-10.033-0.005-15.05
		C34.366,21.604,34.378,21.261,34.384,20.918z"/>
	<path style="fill:#65DDFC;" d="M41.293,33.339c-1.304,2.97-3.388,5.248-6.146,6.929c-0.092-0.071-0.185-0.142-0.277-0.213
		c-0.143-0.496,0.245-0.695,0.545-0.91c2.363-1.693,4.199-3.805,5.281-6.534c0.104-0.261,0.19-0.598,0.597-0.566
		C41.294,32.476,41.294,32.908,41.293,33.339z"/>
	<path style="fill:#56D8FC;" d="M41.294,32.045c-1.196,3.428-3.606,5.882-6.423,8.009c-0.105-0.082-0.21-0.164-0.315-0.246
		c0.033-0.18,0.066-0.359,0.099-0.539c0.434-0.603,1.113-0.898,1.676-1.339c1.111-0.872,2.047-1.895,2.664-3.182
		c0.134-0.269,0.273-0.535,0.459-0.773c0.864-0.918,1.112-2.091,1.347-3.27c0.09-0.234,0.153-0.497,0.492-0.465
		C41.292,30.842,41.293,31.443,41.294,32.045z"/>
	<path style="fill:#54D7FC;" d="M36.17,17.308c0.088-0.087,0.176-0.174,0.265-0.261c0.169,0.002,0.337,0.005,0.506,0.008
		c0.742,0.883,1.642,1.622,2.334,2.552c0.306,0.411,0.602,0.826,0.758,1.322l0.005,0.008c0.761,0.687,1.096,1.582,1.256,2.564
		c0,0.52,0,1.04,0,1.56c-0.06,0.02-0.119,0.04-0.179,0.06c-0.051-0.036-0.102-0.073-0.154-0.108
		c-0.678-1.646-1.28-3.327-2.207-4.861C38.129,18.988,37.029,18.257,36.17,17.308z"/>
	<path style="fill:#43D0FB;" d="M30.009,41.345c-2.094,0.006-4.198,0.104-6.195-0.732c-0.195-0.082-0.42-0.096-0.514-0.328
		c0.16-0.06,0.365-0.215,0.474-0.164c2.068,0.958,4.281,0.536,6.43,0.699C30.233,41.03,30.204,41.218,30.009,41.345z"/>
	<path style="fill:#42D0FB;" d="M41.292,30.24c-0.071,0.168-0.142,0.336-0.213,0.504c-0.148,0.083-0.273,0.057-0.378-0.076
		c-0.257-1.559,0.191-3.139-0.137-4.697c0.001-0.288-0.039-0.583,0.137-0.843c0.106-0.13,0.232-0.153,0.378-0.069
		c0.29,0.391-0.019,0.882,0.215,1.283C41.293,27.642,41.292,28.941,41.292,30.24z"/>
	<path style="fill:#CCCCDB;" d="M30.748,2.834c0.241,0.148,0.679,0.443,0.74,0.137c0.288-1.444,0.703-0.023,1.033-0.081
		c-0.014,0.253,0.37,0.629-0.057,0.735c-0.573,0.143-1.238,0.47-1.732-0.219C30.588,3.211,30.599,3.021,30.748,2.834z"/>
	<path style="fill:#CACAD9;" d="M34.574,52.944c-0.464,0.33-0.155,0.82-0.254,1.226c-0.66-0.303-0.449-1.43-1.389-1.469
		c0.387-0.747,1.08-0.493,1.688-0.516C34.84,52.452,34.831,52.706,34.574,52.944z"/>
	<path style="fill:#D5D6E2;" d="M47.28,44.178c-0.544,0.694,0.437,0.441,0.491,0.883c-0.583,0.136-1.19,0.278-1.797,0.42
		C46.113,44.75,46.052,43.818,47.28,44.178z"/>
	<path style="fill:#D1D2DF;" d="M47.005,11.873c0.574,0.25,1.106,0.776,1.797,0.28c-0.15,0.537-0.415,0.965-1.023,1.062
		C47.243,12.927,46.411,12.811,47.005,11.873z"/>
	<path style="fill:#C7C6D7;" d="M6.209,40.858c-0.497-0.041-0.713-0.721-1.295-0.572c-0.023-0.436,0.388-0.653,0.512-1.014
		c0.276,0.185,0.531,0.421,0.832,0.547C7.241,40.231,6.838,40.542,6.209,40.858z"/>
	<path style="fill:#D8D8E4;" d="M51.929,19.616c0.564,0.345-0.194,0.682-0.007,1.025c-0.534,0.169-0.873-0.553-1.527-0.266
		c0.884-0.292,0.536-1.035,0.758-1.526C51.603,18.911,51.443,19.591,51.929,19.616z"/>
	<path style="fill:#342A61;" d="M22.75,54.505c-0.19-0.239-0.38-0.479-0.571-0.718c-0.252-0.162-0.521-0.309-0.612-0.629
		c-0.116-0.532,0.371-0.519,0.638-0.707c0.191,0.006,0.383,0.013,0.574,0.019c0.242,0.477,0.577,0.923,0.514,1.504
		C23.112,54.151,22.931,54.328,22.75,54.505z"/>
	<path style="fill:#D9DAE5;" d="M3.907,39.216c0.271-0.554,0.74-1.053,0.481-1.753c0.048-0.113,0.132-0.184,0.251-0.214
		c0.308-0.007,0.951,0.021,0.678,0.322c-0.562,0.618,0.075,0.945,0.079,1.395C4.87,38.873,4.394,39.076,3.907,39.216z"/>
	<path style="fill:#E4E6EE;" d="M49.073,41.388c0.201,0.419-0.151,1.173,0.726,1.228c-0.585,0.093-1.171,0.186-1.756,0.279
		C47.565,41.832,48.722,41.885,49.073,41.388z"/>
	<path style="fill:#DDDEE8;" d="M51.841,38.704c-0.393-0.045-0.785-0.359-1.179-0.005c-0.179-0.91-0.153-1.707,1.03-1.865
		C51.115,37.507,51.678,38.089,51.841,38.704z"/>
	<path style="fill:#DADBE6;" d="M23.293,53.975c-0.323-0.45-0.673-0.89-0.514-1.504c0.118,0.021,0.318,0.095,0.342,0.057
		c0.582-0.925,0.836-0.183,1.156,0.219c0.068,0.228-0.051,0.346-0.246,0.42C23.16,52.866,23.722,53.872,23.293,53.975z"/>
	<path style="fill:#C0C0D1;" d="M2.618,32.793c-0.307-0.326-0.369-0.659-0.026-1.002c0.144-0.162,0.03-0.409,0.185-0.568
		c0.546-0.039,0.933,0.257,0.827,0.754C3.518,32.383,3.346,33.013,2.618,32.793z"/>
	<path style="fill:#D2D3E0;" d="M52.44,32.702c0.672,0.245,0.377,1.394,1.306,1.398c-0.416,0.708-1.118-0.293-1.559,0.261
		C52.402,33.828,51.572,33.136,52.44,32.702z"/>
	<path style="fill:#DBDCE7;" d="M28.928,2.086c0.133,0.423,0.639,0.706,0.465,1.243c-0.481,0.579-0.961,0.191-1.441-0.002
		C27.898,2.616,28.847,2.692,28.928,2.086z"/>
	<path style="fill:#E9EBF2;" d="M3.88,17.053c0.497-0.006,0.99,0.381,1.491,0.019c0.104,0.625,0.02,1.146-0.719,1.306
		C4.395,17.937,4.138,17.495,3.88,17.053z"/>
	<path style="fill:#EDEEF5;" d="M32.298,53.188c-0.583,0.115-1.168,0.228-1.044,1.047c-0.081-0.01-0.163-0.019-0.244-0.029
		c-0.24-0.291-0.041-0.782-0.452-0.996c0.54-0.37,0.976-1.411,1.75-0.271c0.077,0.058,0.101,0.114,0.073,0.168
		C32.352,53.161,32.325,53.188,32.298,53.188z"/>
	<path style="fill:#D3D3E0;" d="M4.148,36.051c-0.273-0.284-0.989,0.054-0.957-0.478c0.031-0.507,0.284-1.088,0.96-1.201
		c0.263,0.002,0.629,0.157,0.347,0.365C3.963,35.13,4.218,35.607,4.148,36.051z"/>
	<path style="fill:#E4E6EE;" d="M38.788,51.185c-0.084,0.296-0.134,0.618-0.527,0.673c0.016-0.485-0.188-0.687-0.493-0.225
		c-0.178,0.269-0.371,0.242-0.582,0.306c0.293-0.371-0.213-0.641-0.133-1.075c0.449,0,0.892,0,1.334,0
		c0.11-0.109,0.23-0.123,0.361-0.041C38.856,50.934,38.868,51.055,38.788,51.185z"/>
	<path style="fill:#E6E7EF;" d="M26.689,54.249c-0.832-0.065-0.576-0.874-0.885-1.296c0.609-0.595,1.022,0.165,1.646,0.109
		C27.222,53.593,26.267,53.503,26.689,54.249z"/>
	<path style="fill:#E7E9F1;" d="M5.673,16.035c0.329-0.58,0.465-1.131-0.231-1.558c0.529-0.059,1.024-0.03,1.318,0.514
		C6.885,15.845,6.276,15.937,5.673,16.035z"/>
	<path style="fill:#72E1FC;" d="M41.294,23.499c-0.419-0.855-0.837-1.709-1.256-2.564c0.859-0.01,0.787,0.898,1.256,1.273
		C41.294,22.639,41.294,23.069,41.294,23.499z"/>
	<path style="fill:#C8C8D8;" d="M13.677,49.341c-0.245-0.015-0.49-0.031-0.735-0.046c0.068-0.186,0.377-0.434-0.142-0.45
		c-0.577-0.017-0.338-0.278-0.137-0.517C13.697,47.945,13.877,48.124,13.677,49.341z"/>
	<path style="fill:#B9B7CB;" d="M3.328,21.433c0.102,0.003,0.204,0.006,0.306,0.01c0.272,0.444,0.316,0.887-0.007,1.328
		c-0.886,0.106-0.821-0.506-0.813-1.076C2.985,21.607,3.157,21.52,3.328,21.433z"/>
	<path style="fill:#837EA0;" d="M34.295,3.466c0.315-0.027,0.4-0.57,0.818-0.366c-0.036,0.301,0.151,0.51,0.302,0.733
		c-0.056,0.098-0.129,0.113-0.22,0.046c-0.381,0.404-0.661,1.378-1.315,0.232C34.023,3.899,34.077,3.629,34.295,3.466z"/>
	<path style="fill:#DFE0EA;" d="M40.103,5.703c0.057,0.059,0.12,0.066,0.189,0.022c-0.082,0.846,1.064-0.05,1.03,0.727
		c-0.13,0.144-0.035,0.402-0.254,0.502C40.203,6.957,39.695,6.684,40.103,5.703z"/>
	<path style="fill:#DADBE6;" d="M9.31,11.433c-0.276-0.196-0.551-0.392-0.827-0.588c0.546-0.615,1.156-0.046,1.784-0.299
		C10.162,11.308,9.683,11.3,9.31,11.433z"/>
	<path style="fill:#E1E2EB;" d="M45.178,47.348c-0.493,0.19-0.99,0.343-1.528,0.214c0.192-0.748,0.568-1.299,1.427-1.333
		C45.102,46.603,44.384,47.043,45.178,47.348z"/>
	<path style="fill:#CFCFDD;" d="M16.243,5.424c0.08-0.192,0.035-0.447,0.281-0.555c0.351,0.101,0.702,0.202,1.053,0.303
		c-0.147,0.514-0.08,1.317-1.023,0.759C16.45,5.761,16.346,5.593,16.243,5.424z"/>
	<path style="fill:#D0D1DE;" d="M38.935,4.947c-0.063,0.618,0.659,0.348,0.815,0.719c-0.887,1.161-1.034-0.288-1.55-0.439
		c-0.088-0.125-0.074-0.239,0.04-0.34C38.471,4.907,38.703,4.927,38.935,4.947z"/>
	<path style="fill:#D3D3E0;" d="M53.416,26.81c-0.34,0.325-0.02,0.567,0.104,0.834c-0.101,0.268-0.364,0.205-0.562,0.276
		c-0.245-0.102-0.589-0.091-0.366-0.558c0.141-0.295,0.391-0.633,0.139-1.007c0.044-0.035,0.089-0.07,0.133-0.105
		c0.112-0.025,0.223-0.021,0.332,0.017C53.359,26.411,53.582,26.532,53.416,26.81z"/>
	<path style="fill:#9B98B3;" d="M52.7,35.384c-0.551,0.322-0.725,0.843-0.762,1.438c-0.094-0.001-0.187-0.001-0.281-0.002
		c0.341-0.537-0.883-1.229,0.168-1.696c0.234-0.159,0.467-0.149,0.7,0.002C52.584,35.212,52.642,35.298,52.7,35.384z"/>
	<path style="fill:#D9DAE5;" d="M52.988,28.213c0.245,0.32,0.489,0.639,0.734,0.959c-0.361,0.101-0.685,0.245-0.76,0.672
		C52.766,29.297,51.813,28.737,52.988,28.213z"/>
	<path style="fill:#EAECF2;" d="M36.682,51.974c-0.339,0.102-0.679,0.205-1.018,0.307c-0.142,0.041-0.268,0.014-0.381-0.082
		c0.175-0.417,0.77-0.669,0.348-1.4c0.459,0.37,0.762,0.614,1.065,0.858c0.071,0.074,0.093,0.145,0.065,0.214
		C36.734,51.94,36.707,51.974,36.682,51.974z"/>
	<path style="fill:#CBCBDA;" d="M46.18,10.094c-0.015,0.406,0.934,1.234-0.454,1.04c-0.224-0.135-0.134-0.52-0.458-0.576
		C45.412,10.091,45.809,10.117,46.18,10.094z"/>
	<path style="fill:#E8E9F1;" d="M50.123,40.058c-0.077,0.153-0.154,0.307-0.232,0.46c0.144,0.493,0.104,0.809-0.531,0.552
		c-0.068-0.042-0.14-0.072-0.217-0.09c0.377-0.448,0.043-1.355,0.944-1.466C50.529,39.622,50.529,39.628,50.123,40.058z"/>
	<path style="fill:#C9C9D9;" d="M26.379,3.155c-0.025-0.082-0.036-0.165-0.033-0.25c0.198-0.331,0.125-0.746,0.334-1.073
		c0.919,0.031,0.926,0.608,0.768,1.283C27.104,3.469,26.726,2.911,26.379,3.155z"/>
	<path style="fill:#D4D5E1;" d="M42.096,7.212c0.261,0.014,0.522,0.028,0.784,0.042c-0.462,0.347,0.661,0.669,0.016,1.018
		c-0.732,0.294-0.648-0.373-0.84-0.714C41.955,7.429,41.969,7.314,42.096,7.212z"/>
	<path style="fill:#E6E8EF;" d="M22.205,52.451c0.075,0.393-0.759,0.249-0.459,0.775c-0.094,0.419-0.327,0.274-0.497,0.09
		c-0.329-0.357-0.675-0.712-0.793-1.211c0.059-0.309-0.051-0.732,0.483-0.725C20.975,52.193,21.464,52.471,22.205,52.451z"/>
	<path style="fill:#D2D2E0;" d="M24.03,53.166c0.082-0.14,0.164-0.28,0.246-0.42c0.359,0.084,0.615,0.5,1.053,0.33
		c-0.177,0.412-0.452,0.803-0.218,1.295C24.443,54.205,24.723,53.266,24.03,53.166z"/>
	<path style="fill:#C5C4D5;" d="M48.061,42.871c0.085,0.405,0.067,0.9,0.712,0.815c-0.311,0.658-0.769,0.377-1.213,0.19
		C47.343,43.35,47.673,43.096,48.061,42.871z"/>
	<path style="fill:#C8C8D8;" d="M34.295,3.466c0.014,0.313,0.118,0.683-0.414,0.645c-0.439-0.22-1.281-0.327-0.266-0.952
		c0.04-0.147,0.116-0.169,0.229-0.066C33.994,3.217,34.145,3.342,34.295,3.466z"/>
	<path style="fill:#A9A7BF;" d="M22.211,3.362c0.159-0.454-0.042-0.975,0.26-1.403c0.417,0.37-0.061,1.07,0.511,1.384
		c0.062,0.056,0.084,0.115,0.068,0.176c-0.017,0.062-0.035,0.092-0.054,0.092c-0.235,0.076-0.148,0.548-0.434,0.453
		C22.303,3.978,22.16,3.682,22.211,3.362z"/>
	<path style="fill:#D7D7E3;" d="M2.4,25.794c0.061-0.076,0.123-0.153,0.184-0.229c0.375,0.397,1.336,0.677,0.271,1.361
		c-0.281-0.034-0.554-0.082-0.656-0.405C2.56,26.36,2.376,26.048,2.4,25.794z"/>
	<path style="fill:#C2C1D2;" d="M40.378,50.109c-0.198,0.265-0.395,0.529-0.593,0.794c-0.222,0.008-0.412-0.067-0.575-0.217
		c-0.057-0.091-0.088-0.191-0.094-0.298c0.02-0.106,0.071-0.195,0.153-0.267C39.631,49.391,40.003,49.568,40.378,50.109z"/>
	<path style="fill:#F7FAFD;" d="M50.898,16.524c-0.022,0.535-0.061,1.057-0.783,1.089C49.421,16.563,50.175,16.555,50.898,16.524z"
		/>
	<path style="fill:#DCDEE8;" d="M11.316,8.525c0.132-0.442,0.732-0.066,0.87-0.497c0.079-0.006,0.153-0.029,0.222-0.069
		c1.052,0.32-0.123,0.529-0.04,0.801c-0.241,0.233-0.502,0.287-0.79,0.086C11.491,8.739,11.404,8.632,11.316,8.525z"/>
	<path style="fill:#C1C0D2;" d="M6.945,44.44c0.142-0.571,0.877-0.555,1.068-1.078c0.181,0.179,0.361,0.357,0.542,0.536
		c-0.039,0.188-0.149,0.303-0.342,0.333C7.791,44.306,7.399,44.563,6.945,44.44z"/>
	<path style="fill:#DEDFE9;" d="M12.413,7.717c0.232-0.654,0.818-0.454,1.288-0.533c0.462,0.518,0.114,0.711-0.348,0.739
		C13.044,7.941,12.726,7.792,12.413,7.717z"/>
	<path style="fill:#DDDEE8;" d="M18.102,51.89c-0.097-0.158-0.195-0.315-0.292-0.473c-0.073-0.099-0.092-0.206-0.046-0.323
		c0.152-0.201,0.33-0.33,0.597-0.219c0.081,0.407,0.783,0.21,0.728,0.748C18.737,51.627,18.513,52.107,18.102,51.89z"/>
	<path style="fill:#A09DB7;" d="M36.682,51.974c0.005-0.105,0.009-0.211,0.014-0.316c0.169,0.086,0.338,0.173,0.508,0.259
		c-0.009,0.516-0.018,1.033-0.028,1.549C36.227,53.228,36.905,52.452,36.682,51.974z"/>
	<path style="fill:#E0E1EB;" d="M36.641,4.658c0.37-0.436,0.743-0.441,1.118-0.007c0.064,0.078,0.104,0.167,0.119,0.267
		c-0.019,0.099-0.058,0.189-0.121,0.268c-0.178,0.107-0.351,0.74-0.541,0.054C37.118,4.885,36.741,4.934,36.641,4.658z"/>
	<path style="fill:#F6F9FD;" d="M6.473,13.18c0.602-0.096,1.205-0.191,1.807-0.287l-0.042,0.07c0.15,0.499-0.363,0.243-0.488,0.428
		c-0.375,0.142-0.43,0.488-0.518,0.813C6.46,14.248,7.108,13.239,6.473,13.18z"/>
	<path style="fill:#C6C6D6;" d="M29.276,53.745c-0.291-0.175-0.583-0.35-0.874-0.524c0.306-0.705,0.789-0.573,1.307-0.275
		c0.14,0.13,0.181,0.287,0.122,0.469C29.693,53.602,29.552,53.787,29.276,53.745z"/>
	<path style="fill:#DFE1EA;" d="M42.428,48.278c0.225-0.21,0.344-0.615,0.778-0.443c0.236,0.093,0.272,0.356,0.23,0.521
		c-0.108,0.423-0.489,0.338-0.808,0.332c-0.162-0.003-0.323-0.014-0.485-0.022C41.983,48.348,42.086,48.225,42.428,48.278z"/>
	<path style="fill:#E1E2EB;" d="M22.996,3.611c-0.005-0.089-0.009-0.179-0.014-0.268c0.442-0.195,0.885-0.39,1.327-0.585
		C24.189,3.531,23.908,4.056,22.996,3.611z"/>
	<path style="fill:#D9DAE6;" d="M9.871,9.57c0.545-0.249,1.142-0.598,0.989,0.509C10.374,10.212,9.943,10.24,9.871,9.57z"/>
	<path style="fill:#F3F5FA;" d="M12.412,47.814c-0.088,0.183-0.176,0.367-0.263,0.55c-0.145-0.502-0.485-0.682-0.985-0.596
		c-0.185-0.318-0.056-0.551,0.205-0.747c0.396,0.06,0.554,0.607,1.031,0.503c0.081,0.061,0.11,0.124,0.087,0.189
		C12.462,47.781,12.437,47.814,12.412,47.814z"/>
	<path style="fill:#ECEEF4;" d="M43.972,8.758c0.328,0.035,0.656,0.069,0.984,0.104C45.092,9,45.104,9.134,44.943,9.263
		c-0.086,0.11-0.171,0.219-0.257,0.329c-0.444,0.011-0.7-0.334-1.028-0.542C43.595,8.772,43.709,8.685,43.972,8.758z"/>
	<path style="fill:#E4E6EE;" d="M15.446,50.36c-0.239-0.085-0.479-0.17-0.718-0.255c-0.23-0.263-0.219-0.527-0.003-0.791
		C15.182,49.514,16.437,49.163,15.446,50.36z"/>
	<path style="fill:#F1F4F9;" d="M49.428,13.97c-0.253,0.338-0.674,0.662-0.087,1.068c0.056,0.058,0.073,0.115,0.051,0.169
		c-0.022,0.054-0.042,0.081-0.062,0.081c-0.816,0.028-1.152-0.273-0.74-1.084C48.791,13.846,49.051,13.7,49.428,13.97z"/>
	<path style="fill:#B6B4C9;" d="M17.047,51.4c-0.083,0.022-0.167,0.038-0.251,0.05c-0.182-0.16-0.363-0.319-0.545-0.479
		c-0.026-0.277-0.159-0.623,0.183-0.758c0.327-0.129,0.501,0.186,0.682,0.404C17.273,50.894,17.284,51.158,17.047,51.4z"/>
	<path style="fill:#D5D5E2;" d="M51.933,20.947c0.171,0.078,0.342,0.156,0.513,0.234c0.486,0.461-0.032,0.598-0.266,0.827
		C51.761,21.733,51.503,21.42,51.933,20.947z"/>
	<path style="fill:#CDCEDC;" d="M14.704,6.377c0.527-1.321,0.883,0.013,1.32,0.085c-0.491,0.037-0.923,0.204-1.256,0.582
		C14.559,6.84,14.567,6.615,14.704,6.377z"/>
	<path style="fill:#CECEDC;" d="M46.021,46.247c-0.318,0.428-0.634,0.336-0.949-0.003c0.145-0.454,0.37-0.813,0.924-0.787
		C46.004,45.721,46.012,45.984,46.021,46.247z"/>
	<path style="fill:#3B3167;" d="M35.284,52.199c0.127,0.027,0.254,0.055,0.381,0.082c0.003,0.107,0.006,0.213,0.009,0.32
		c-0.122,0.201-0.185,0.483-0.527,0.382c-0.172-0.294-0.381-0.027-0.572-0.039c0.015-0.253,0.031-0.506,0.046-0.759
		C34.849,51.849,35.063,52.175,35.284,52.199z"/>
	<path style="fill:#D6D6E2;" d="M53.267,25.063c-0.037,0.167-0.073,0.334-0.11,0.501c-0.091,0.084-0.199,0.122-0.323,0.115
		c-0.185-0.062-0.296-0.19-0.341-0.377c-0.315-0.512-0.11-0.721,0.429-0.736C53.037,24.731,53.152,24.897,53.267,25.063z"/>
	<path style="fill:#D5D5E2;" d="M9.366,45.478c-0.447,0.067-0.893,0.133-1.34,0.2c-0.073-0.736,0.987-0.313,0.992-0.969
		c0.114-0.113,0.224-0.11,0.331,0.01C9.354,44.972,9.36,45.225,9.366,45.478z"/>
	<path style="fill:#E5E6EF;" d="M28.428,53.206c-0.203,0.437-0.065,1.01-0.535,1.34C27.718,53.959,27.024,53.163,28.428,53.206z"/>
	<path style="fill:#CFD0DD;" d="M19.914,52.884c-0.098-0.13-0.196-0.26-0.294-0.389c-0.092-0.419-0.471-1.019,0.489-0.771
		c0.269,0.073,0.424,0.225,0.362,0.527C20.376,52.542,20.48,53.008,19.914,52.884z"/>
	<path style="fill:#ECEEF4;" d="M50.123,40.058c0.04-0.185,0.283-0.383-0.036-0.544c-0.008-0.377,0.124-0.606,0.553-0.516
		c-0.216,0.707,0.713,0.558,0.784,1.05C50.992,40.198,50.555,39.75,50.123,40.058z"/>
	<path style="fill:#E4E6EE;" d="M49.33,15.287c0-0.083,0.004-0.167,0.011-0.25c0.338-0.002,0.677-0.004,1.015-0.007
		c-0.016,0.563-0.567,0.626-0.891,0.879C49.405,15.956,49.377,15.507,49.33,15.287z"/>
	<path style="fill:#CACAD9;" d="M2.09,30.494c0.259-0.084,0.284-0.28,0.243-0.507c0.065-0.106,0.088-0.252,0.251-0.265
		c0.82,0.353,0.916,0.722,0.025,1.113c-0.106,0.056-0.209,0.049-0.307-0.02C2.232,30.708,2.161,30.601,2.09,30.494z"/>
	<path style="fill:#281D58;" d="M33.844,3.093c-0.072,0.036-0.148,0.058-0.229,0.066c-0.181-0.26-0.362-0.52-0.543-0.78
		c0.148-0.36,0.444-0.299,0.732-0.258C34.142,2.432,34.066,2.759,33.844,3.093z"/>
	<path style="fill:#D6D7E3;" d="M5.673,16.767c-0.689,0.243-0.526-0.77-1.077-0.73c0.358-0.64,0.736-0.03,1.105-0.018
		C5.692,16.267,5.682,16.517,5.673,16.767z"/>
	<path style="fill:#D9DAE5;" d="M3.631,34.139c-0.466-0.09-0.66,0.412-1.053,0.482c0.057-0.488,0.082-1.076,0.642-1.191
		C3.663,33.339,3.66,33.798,3.631,34.139z"/>
	<path style="fill:#D7D8E4;" d="M6.732,41.864c-0.347,0.039-0.729-0.321-1.042,0.093c-0.526-0.7,0.391-0.587,0.517-0.919
		C6.824,41.032,6.706,41.493,6.732,41.864z"/>
	<path style="fill:#F2F4FA;" d="M52.991,31.012c0.01,0.341,0.287,0.686-0.017,1.022c-0.09,0.092-0.183,0.094-0.277,0.006
		c-0.51-0.333-0.328-0.693-0.04-1.056C52.777,30.885,52.889,30.895,52.991,31.012z"/>
	<path style="fill:#F5F6FB;" d="M4.639,37.249c-0.084,0.071-0.167,0.143-0.251,0.214c-0.26,0.022-0.521,0.043-0.781,0.065
		c-0.386-0.51,0.183-0.658,0.394-0.785C4.502,36.441,4.3,37.221,4.639,37.249z"/>
	<path style="fill:#C9C9D8;" d="M50.663,17.834c0.349,0.095,0.799,0.074,0.92,0.497c0.077,0.271-0.255,0.259-0.437,0.327
		C50.6,18.61,50.659,18.206,50.663,17.834z"/>
	<path style="fill:#DADBE6;" d="M3.938,19.37c0.065-0.169,0.129-0.337,0.194-0.506c0.081,0.03,0.165,0.036,0.25,0.02
		c0,0.422,0,0.844,0.001,1.265c-0.176,0.086-0.352,0.172-0.528,0.258C3.745,20.051,3.577,19.689,3.938,19.37z"/>
	<path style="fill:#EEF0F6;" d="M6.445,42.936c0.415-0.287,0.361-0.686,0.263-1.096c0.578-0.045,0.819,0.259,0.831,0.801
		l-0.075-0.021c-0.155,0.391-0.424,0.469-0.788,0.29C6.597,42.91,6.521,42.919,6.445,42.936z"/>
	<path style="fill:#C1BFD1;" d="M32.298,53.188c-0.026-0.084-0.023-0.166,0.009-0.247c0.077,0.039,0.157,0.047,0.241,0.024
		c0.536,0.436,0.236,0.94,0.181,1.453C32.048,54.14,32.391,53.598,32.298,53.188z"/>
	<path style="fill:#F2F5FA;" d="M47.776,11.17c-0.049,0.455-0.686,0.271-0.759,0.7c-0.377,0.045-0.412-0.245-0.486-0.496
		C46.9,11.022,47.339,11.104,47.776,11.17z"/>
	<path style="fill:#BAB8CC;" d="M18.357,4.104c0.088,0.115,0.176,0.23,0.264,0.345c0.133,0.165,0.134,0.325-0.015,0.481
		c-0.04,0.391-0.159,0.611-0.547,0.257C17.945,4.767,17.907,4.368,18.357,4.104z"/>
	<path style="fill:#D9DAE6;" d="M3.124,24.556c-0.189-0.006-0.378-0.011-0.567-0.017c-0.211-0.669,0.338-0.787,0.736-1.015
		c0.013,0.055,0.027,0.11,0.04,0.165C3.263,23.977,3.476,24.335,3.124,24.556z"/>
	<path style="fill:#F8FBFD;" d="M9.348,44.719c-0.11-0.003-0.22-0.007-0.331-0.01c-0.341-0.037-0.692-0.056-0.805-0.478
		c0.114-0.111,0.228-0.222,0.342-0.333C8.788,44.202,9.248,44.287,9.348,44.719z"/>
	<path style="fill:#A29FB9;" d="M52.168,22.507c0.258,0.09,0.516,0.18,0.774,0.27c-0.003,0.164-0.005,0.328-0.008,0.491
		c-0.23,0.203-0.299,0.509-0.48,0.744c-0.392-0.145-0.208-0.494-0.267-0.756C51.967,23.011,51.997,22.761,52.168,22.507z"/>
	<path style="fill:#D3D4E1;" d="M8.279,12.706c-0.457-0.095-0.504-0.483-0.598-0.838c0.429-0.13,0.771,0.007,1.05,0.341
		C8.58,12.375,8.43,12.541,8.279,12.706z"/>
	<path style="fill:#69628B;" d="M11.368,47.022c-0.068,0.249-0.136,0.498-0.205,0.747c-0.154-0.075-0.308-0.149-0.46-0.224
		c-0.177-0.446,0.178-0.646,0.417-0.901C11.202,46.77,11.285,46.896,11.368,47.022z"/>
	<path style="fill:#433A6D;" d="M17.047,51.4c0.023-0.261,0.046-0.522,0.069-0.783c0.128-0.002,0.256-0.004,0.383-0.007
		c0.278,0.077,0.331,0.305,0.365,0.546c-0.018,0.087-0.036,0.174-0.054,0.261C17.554,51.49,17.292,51.81,17.047,51.4z"/>
	<path style="fill:#C9C9D9;" d="M42.254,49.334c-0.108,0.324-0.419,0.238-0.647,0.321c-0.221,0.153-0.458,0.226-0.727,0.152
		c-0.118-0.052-0.221-0.126-0.309-0.221c0.163-0.546,0.575-0.557,1.028-0.478c0.156,0.128,0.399,0.049,0.534,0.226L42.254,49.334z"
		/>
	<path style="fill:#E4E6EE;" d="M18.606,4.93c0.005-0.16,0.01-0.321,0.015-0.481c0.316-0.48,0.674-0.237,1.027-0.058
		C19.454,4.867,19.056,4.95,18.606,4.93z"/>
	<path style="fill:#DCDDE7;" d="M49.428,13.97c-0.279,0.078-0.559,0.156-0.838,0.234c-0.273-0.079-0.325-0.279-0.287-0.527
		c0.45-0.016,0.917,0.057,1.308-0.258C49.621,13.626,49.683,13.851,49.428,13.97z"/>
	<path style="fill:#DCDEE7;" d="M52.168,22.507c0.006,0.249,0.012,0.499,0.019,0.748c-0.199,0.017-0.398,0.033-0.597,0.05
		c-0.031-0.466,0.326-0.712,0.577-1.018C52.15,22.361,52.151,22.434,52.168,22.507z"/>
	<path style="fill:#DCDDE8;" d="M43.972,8.758c-0.104,0.097-0.209,0.195-0.313,0.292c-0.398-0.155-0.176-0.524-0.272-0.784
		c0.244-0.135,0.387-0.537,0.774-0.293c0.016,0.081,0.023,0.162,0.023,0.244C43.885,8.307,43.91,8.525,43.972,8.758z"/>
	<path style="fill:#8782A3;" d="M17.864,51.156c-0.28-0.076-0.315-0.316-0.365-0.546c0.117-0.155,0.234-0.31,0.351-0.466
		c0.1,0.038,0.17,0.106,0.205,0.208c0.102,0.174,0.204,0.348,0.305,0.522C18.195,50.969,18.029,51.063,17.864,51.156z"/>
	<path style="fill:#837FA0;" d="M14.725,49.314c0.001,0.264,0.002,0.528,0.003,0.791c-0.187,0.316-0.389,0.059-0.586,0.016
		c0.107-0.19,0.093-0.365-0.065-0.523C14.2,49.292,14.295,48.921,14.725,49.314z"/>
	<path style="fill:#7D789B;" d="M11.579,8.846c0.263-0.029,0.527-0.057,0.79-0.086c0,0.775-0.507,0.667-1.004,0.577
		C11.436,9.173,11.507,9.01,11.579,8.846z"/>
	<path style="fill:#9C99B4;" d="M42.096,7.212c-0.014,0.115-0.027,0.231-0.041,0.346c-0.503,0.082-0.757-0.241-0.987-0.604
		c0.085-0.167,0.169-0.334,0.254-0.502c0.09,0.09,0.181,0.18,0.271,0.27C41.761,6.886,41.929,7.049,42.096,7.212z"/>
	<path style="fill:#2A2059;" d="M2.585,29.721c-0.084,0.088-0.168,0.177-0.251,0.265c-0.178-0.252-0.355-0.504-0.533-0.756
		c0,0,0.005-0.033,0.005-0.033c0.289-0.203,0.603-0.3,0.957-0.219c0.126,0.054,0.239,0.128,0.339,0.22
		C2.93,29.372,2.757,29.547,2.585,29.721z"/>
	<path style="fill:#E9EBF2;" d="M3.333,23.688c0.008-0.06-0.006-0.115-0.041-0.165c-0.241-0.046-0.483-0.091-0.725-0.137
		c0,0-0.016,0.018-0.017,0.019c0.232-0.169,0.406-0.45,0.755-0.396C3.124,23.243,4.132,23.43,3.333,23.688z"/>
	<path style="fill:#483F71;" d="M2.303,30.815c0.102,0.007,0.205,0.013,0.307,0.02c0.056,0.129,0.112,0.259,0.167,0.388
		c-0.062,0.189-0.123,0.379-0.185,0.568C2.371,31.502,1.833,31.308,2.303,30.815z"/>
	<path style="fill:#E9EBF2;" d="M52.991,31.012c-0.111-0.01-0.223-0.019-0.334-0.029c0.244-0.322-0.513-0.65,0.007-0.97
		c0.165,0.328,0.6,0.511,0.523,0.97C53.123,31.001,53.058,31.011,52.991,31.012z"/>
	<path style="fill:#C9C9D9;" d="M42.133,49.334c-0.213,0.007-0.409-0.024-0.534-0.226c0.375-0.178-0.12-1.224,0.828-0.83
		c-0.095,0.129-0.19,0.258-0.285,0.387C42.14,48.888,42.137,49.111,42.133,49.334z"/>
	<path style="fill:#F5F7FC;" d="M30.748,2.834c-0.005,0.191-0.011,0.382-0.016,0.572c-0.248-0.019-0.497-0.037-0.745-0.056
		c-0.098-0.25-0.095-0.454,0.232-0.513c0.117-0.156,0.209-0.363,0.467-0.225C30.724,2.682,30.744,2.756,30.748,2.834z"/>
	<path style="fill:#5F5883;" d="M3.102,29.198c-0.095-0.008-0.189-0.017-0.284-0.025c-0.133-0.16-0.221-0.339-0.228-0.551
		c-0.053-0.35-0.021-0.679,0.236-0.953c0,0,0.045-0.112,0.045-0.112C3.352,28.047,3.184,28.629,3.102,29.198z"/>
	<path style="fill:#EEF0F6;" d="M35.196,3.879c0.083,0.03,0.156,0.015,0.22-0.046c0.605,0.005,0.625,0.352,0.469,0.802
		C35.607,4.427,34.993,4.525,35.196,3.879z"/>
	<path style="fill:#CAC9D8;" d="M52.697,32.039c0.092-0.002,0.184-0.004,0.277-0.006c0.345,0.012,0.5,0.254,0.629,0.525
		c-0.315,0.436-0.632-0.169-0.947,0.002C52.669,32.387,52.683,32.213,52.697,32.039z"/>
	<path style="fill:#8F8BA9;" d="M52.493,25.301c0.159,0.098,0.318,0.195,0.478,0.293c0.176,0.346-0.074,0.55-0.258,0.775
		c0,0,0.018-0.014,0.018-0.014C51.989,26.153,52.078,25.763,52.493,25.301z"/>
	<path style="fill:#3DCCF8;" d="M21.683,16.016c0.015-0.242,0.029-0.483,0.044-0.725c0.434,0.561,0.126,1.182,0.144,1.777
		c0,0-0.08-0.01-0.08-0.01l-0.081,0c-0.042-0.037-0.084-0.075-0.126-0.112c-0.085-0.151-0.117-0.314-0.112-0.486
		C21.489,16.288,21.567,16.144,21.683,16.016z"/>
	<path style="fill:#DDDEE8;" d="M14.704,6.377c0.022,0.222,0.043,0.445,0.065,0.667c0.065,0.139,0.21,0.298,0.018,0.419
		c-0.175,0.11-0.302,0.002-0.357-0.184c-0.081-0.275-0.163-0.549-0.244-0.824C14.359,6.429,14.532,6.403,14.704,6.377z"/>
	<path style="fill:#3D3368;" d="M40.571,49.586c0.084,0.038,0.167,0.076,0.251,0.114c0.404,0.126,0.511,0.358,0.256,0.719
		c0,0.062,0.004,0.124,0.01,0.185c-0.295-0.058-0.443-0.274-0.562-0.522C40.542,49.916,40.557,49.751,40.571,49.586z"/>
	<path style="fill:#5D5682;" d="M20.419,52.192c-0.103-0.156-0.207-0.312-0.31-0.469c0.325,0.003,0.286-0.876,0.83-0.343
		c-0.49,0.121-0.197,0.56-0.334,0.824l-0.098,0.06L20.419,52.192z"/>
	<path style="fill:#2FC9FB;" d="M26.841,14.945c0.266,0.41,0.688,0.266,1.061,0.298c-0.259,0.78-0.812,0.259-1.242,0.28
		c0,0-0.074-0.02-0.074-0.02C26.599,15.284,26.63,15.074,26.841,14.945z"/>
	<path style="fill:#DBDCE7;" d="M7.75,13.392c0.163-0.143,0.326-0.286,0.488-0.428c0.323,0.21,0.318,0.519,0.273,0.893
		C8.179,13.787,8.102,13.343,7.75,13.392z"/>
	<path style="fill:#D7D8E3;" d="M52.526,35.126c-0.233-0.001-0.467-0.001-0.7-0.002c-0.009-0.272-0.436-0.802,0.358-0.579
		C52.433,34.659,52.526,34.865,52.526,35.126z"/>
	<path style="fill:#72E1FC;" d="M41.082,20.67c-0.019-0.348-0.039-0.695-0.059-1.043c0.027-0.098,0.055-0.196,0.083-0.294
		c0.24,0.422,0.211,0.878,0.164,1.335C41.208,20.669,41.145,20.67,41.082,20.67z"/>
	<path style="fill:#E9EAF2;" d="M52.454,24.012c0.046-0.321-0.174-0.815,0.48-0.744c-0.073,0.254-0.146,0.509-0.218,0.763
		C52.629,24.025,52.541,24.018,52.454,24.012z"/>
	<path style="fill:#49D3FB;" d="M41.293,26.343c-0.366-0.378-0.16-0.852-0.215-1.283c0.072,0,0.144,0,0.216-0.001
		C41.294,25.487,41.294,25.915,41.293,26.343z"/>
	<path style="fill:#CECDDC;" d="M12.412,47.814c-0.004-0.096-0.009-0.193-0.013-0.289c0.016-0.256,0.041-0.628,0.393-0.414
		c0.34,0.207-0.078,0.402-0.176,0.597C12.543,47.735,12.475,47.77,12.412,47.814z"/>
	<path style="fill:#D5D6E2;" d="M29.692,53.547c0.006-0.201,0.011-0.402,0.017-0.602c0.231-0.016,0.452,0.026,0.489,0.289
		c0.047,0.34-0.304,0.358-0.48,0.517c-0.072-0.037-0.099-0.079-0.083-0.127C29.651,53.573,29.67,53.547,29.692,53.547z"/>
	<path style="fill:#DCDEE7;" d="M18.055,50.353c-0.068-0.069-0.137-0.139-0.205-0.208c0.08-0.166-0.113-0.435,0.185-0.512
		c0.067-0.017,0.153,0.035,0.23,0.055C18.195,49.91,18.125,50.132,18.055,50.353z"/>
	<path style="fill:#D6D6E2;" d="M30.558,53.211c0.691,0.086,0.386,0.625,0.452,0.996C30.589,53.998,30.913,53.45,30.558,53.211z"/>
	<path style="fill:#F0F3F8;" d="M29.692,53.547c-0.005,0.069,0.004,0.137,0.025,0.203c0.003,0.287,0.007,0.574,0.01,0.861
		c-0.36-0.18-0.469-0.491-0.451-0.867C29.414,53.679,29.553,53.613,29.692,53.547z"/>
	<path style="fill:#3C3267;" d="M39.269,50.12c-0.025,0.068-0.048,0.138-0.069,0.207c-0.024,0.162-0.087,0.3-0.239,0.382
		c-0.108,0.021-0.205-0.004-0.29-0.073c-0.047-0.094-0.106-0.18-0.177-0.258C38.681,50.077,38.985,50.129,39.269,50.12z"/>
	<path style="fill:#ACABC2;" d="M38.24,4.887c-0.013,0.113-0.027,0.227-0.04,0.34c-0.079-0.001-0.151-0.022-0.218-0.064
		c-0.08-0.069-0.123-0.156-0.121-0.263c0.015-0.106,0.069-0.185,0.168-0.23C38.099,4.743,38.169,4.815,38.24,4.887z"/>
	<path style="fill:#625B85;" d="M37.947,4.893c0.012,0.09,0.023,0.18,0.035,0.27c-0.074,0.012-0.149,0.019-0.224,0.023
		c0.004-0.097,0.007-0.195,0.011-0.292C37.828,4.894,37.887,4.894,37.947,4.893z"/>
	<path style="fill:#F4F6FC;" d="M38.722,50.89c-0.111-0.008-0.222-0.017-0.334-0.025c-0.002-0.09,0.027-0.168,0.086-0.236
		c0.094-0.076,0.181-0.069,0.262,0.02l0.025-0.019C38.833,50.729,38.824,50.816,38.722,50.89z"/>
	<path style="fill:#C0C0D1;" d="M38.736,50.648c-0.087-0.007-0.175-0.014-0.262-0.02c0.007-0.083,0.013-0.167,0.02-0.25
		C38.652,50.4,38.74,50.483,38.736,50.648z"/>
	<path style="fill:#BFBFD1;" d="M49.361,41.07c0.387,0.018,0.487-0.24,0.531-0.552c0.088,0.456,0.693,0.4,0.815,0.822
		C50.203,41.522,49.737,41.519,49.361,41.07z"/>
	<path style="fill:#C6C6D6;" d="M35.146,52.983c0.176-0.127,0.351-0.254,0.527-0.382c0.044,0.439,0.089,0.878,0.17,1.685
		C35.401,53.687,35.07,53.459,35.146,52.983z"/>
	<path style="fill:#392F65;" d="M37.947,4.893l-0.089,0.008c0,0-0.089-0.007-0.089-0.007c-0.034-0.08-0.037-0.161-0.009-0.243
		c0.09,0.006,0.179,0.013,0.269,0.019C37.989,4.74,37.962,4.815,37.947,4.893z"/>
	<path style="fill:#C2C2D3;" d="M30.686,2.613c-0.156,0.075-0.311,0.15-0.467,0.225c-0.074-0.239-0.148-0.478-0.222-0.717
		C30.234,2.276,30.584,2.27,30.686,2.613z"/>
	<path style="fill:#42386C;" d="M39.273,50.67c0.189,0.039,0.413-0.003,0.512,0.233c0.003,0.313,0.032,0.635-0.284,0.841
		c-0.219-0.161-0.218-0.408-0.249-0.642c-0.073-0.056-0.116-0.13-0.122-0.223C39.143,50.785,39.192,50.717,39.273,50.67z"/>
	<path style="fill:#322860;" d="M20.419,52.192c0.061,0.018,0.123,0.023,0.187,0.012c0.54,0.2,0.642,0.766,0.964,1.148
		c0.011,0.013,0.077-0.003,0.104-0.023c0.032-0.024,0.049-0.068,0.072-0.103c0.228,0.122,0.408,0.281,0.434,0.56
		c-0.25,0.064-0.38,0.248-0.476,0.468c-1.008,0.081-1.106-1.027-1.789-1.37C20.313,52.822,20.003,52.242,20.419,52.192z"/>
	<path style="fill:#2E235C;" d="M26.68,1.832c0.376,0.51,0.541,0.953-0.334,1.073c-0.518-0.305-0.688-0.803-0.752-1.359
		C25.99,1.509,26.334,1.673,26.68,1.832z"/>
	<path style="fill:#544C7A;" d="M41.079,50.419c-0.085-0.24-0.171-0.48-0.256-0.719c0.262-0.015,0.523-0.03,0.785-0.046
		C41.617,50.037,41.593,50.397,41.079,50.419z"/>
	<path style="fill:#F4F6FB;" d="M44.943,9.263c0.004-0.134,0.008-0.268,0.013-0.402c0.27,0.018,0.506-0.287,0.795-0.081
		C45.55,9.056,45.347,9.328,44.943,9.263z"/>
	<path style="fill:#D2D3E0;" d="M6.675,42.909c0.263-0.097,0.525-0.193,0.788-0.29c-0.001,0.203,0.429,0.307,0.209,0.497
		C7.307,43.433,6.995,43.06,6.675,42.909z"/>
	<path style="fill:#7E799C;" d="M53.416,26.81c-0.079-0.22-0.194-0.405-0.45-0.447c-0.091-0.424,0.11-0.567,0.504-0.525
		c-0.025,0.394,0.147,0.653,0.527,0.769C53.865,26.851,53.635,26.815,53.416,26.81z"/>
	<path style="fill:#756F95;" d="M2.4,25.794c0.252,0.329,0.349,0.616-0.2,0.727c-0.569,0.097-0.652-0.253-0.638-0.691
		C1.837,25.716,2.135,26.14,2.4,25.794z"/>
	<path style="fill:#F6F9FD;" d="M2.826,27.669c-0.017,0.319-0.034,0.637-0.051,0.956c-0.117,0.22-0.267,0.165-0.425,0.052
		c-0.081-0.251-0.163-0.503-0.244-0.754c0.096-0.208,0.367-0.109,0.486-0.277C2.671,27.64,2.749,27.648,2.826,27.669z"/>
	<path style="fill:#1D114F;" d="M2.592,27.646c-0.029,0.326-0.277,0.267-0.486,0.277c-0.087-0.081-0.174-0.163-0.26-0.244
		C2.095,27.668,2.344,27.657,2.592,27.646z"/>
	<path style="fill:#CECEDC;" d="M19.643,4.277c-0.705-0.287-0.081-0.873-0.285-1.272C20.39,3.218,19.524,3.858,19.643,4.277z"/>
	<path style="fill:#F6F8FC;" d="M41.596,6.457c-0.007-0.529,0.602-0.445,0.783-0.787C42.505,6.318,41.787,6.125,41.596,6.457z"/>
	<path style="fill:#8D89A8;" d="M39.273,50.67c-0.016,0.09-0.031,0.18-0.047,0.27c-0.062,0.067-0.127,0.13-0.194,0.191
		c-0.076,0.04-0.157,0.058-0.243,0.054c-0.022-0.098-0.044-0.197-0.066-0.295c0.013-0.087,0.026-0.174,0.039-0.261
		c0.146-0.1,0.293-0.201,0.439-0.301C39.224,50.442,39.249,50.556,39.273,50.67z"/>
	<path style="fill:#F5F7FC;" d="M39.032,51.132c-0.042-0.172,0.071-0.187,0.194-0.191c0.017,0.052,0.026,0.106,0.026,0.161
		c0,0-0.107,0.037-0.107,0.037L39.032,51.132z"/>
	<path style="fill:#A7A4BD;" d="M2.351,28.677c0.142-0.017,0.283-0.035,0.425-0.052c0.014,0.183,0.029,0.365,0.043,0.548
		c-0.338,0.008-0.675,0.016-1.013,0.024C1.987,29.024,2.169,28.85,2.351,28.677z"/>
	<path style="fill:#5B5380;" d="M53.47,25.838c-0.168,0.175-0.336,0.35-0.504,0.525c-0.084,0.002-0.169,0.004-0.253,0.006
		c0.086-0.258,0.172-0.517,0.258-0.775c0.057-0.044,0.119-0.054,0.186-0.03C53.295,25.617,53.645,25.428,53.47,25.838z"/>
	<path style="fill:#3DCCF8;" d="M16.018,31.522c-1.149-3.745-0.587-7.26,1.438-10.571c0.157-0.256,0.377-0.472,0.369-0.8
		c0.012-0.06,0.024-0.119,0.036-0.179c0.663-0.943,1.509-1.715,2.386-2.441c0.385-0.318,0.787-0.843,1.438-0.495
		c0,0,0.025,0.024,0.025,0.024c-0.006,0.088-0.011,0.177-0.017,0.265c-0.891,1.161-2.217,1.871-3.097,3.06
		c-0.984,1.329-1.699,2.766-2.177,4.341c-0.121,0.4-0.192,0.744,0.131,1.066c-0.991,1.282-0.475,2.728-0.399,4.109
		c0.025,0.452,0.123,0.912,0.12,1.376C16.186,31.358,16.102,31.44,16.018,31.522z"/>
	<path style="fill:#17BFFA;" d="M16.55,25.791c-0.641-0.22-0.496-0.64-0.353-1.14c0.899-3.149,2.77-5.556,5.496-7.327
		c-0.004,0.251-0.007,0.502-0.011,0.753C18.713,19.811,17.065,22.424,16.55,25.791z"/>
	<path style="fill:#2CC7FB;" d="M26.66,15.523c0.414-0.095,0.903,0.147,1.242-0.28c0.172,0,0.345,0,0.517,0
		c0.656,0.356,1.411-0.085,2.068,0.257c2.224,0.63,4.368,1.383,6.114,3.025c0.739,0.696,1.211,1.657,2.153,2.14
		c0.239,0.123,0.373,0.339,0.501,0.561c0.79,1.444,1.45,2.934,1.564,4.608c0.433,1.636,0.131,3.273,0.001,4.909
		c-0.106,1.244-0.481,2.385-1.287,3.361c-0.089,0.257-0.177,0.513-0.266,0.77c-1.034,1.189-1.969,2.485-3.295,3.376
		c-0.372,0.25-0.692,0.834-1.314,0.503c-0.001-0.173-0.003-0.346-0.004-0.519c3.653-2.341,5.464-5.661,5.682-10.016
		c0.281-5.617-3.705-10.645-8.932-12.005c-1.115-0.29-2.247-0.479-3.412-0.467C27.549,15.753,27.042,15.952,26.66,15.523z"/>
	<path style="fill:#00B0F3;" d="M25.851,21.698c1.618-0.356,3.235-0.366,4.853-0.002c0,1.024,0,2.049,0,3.238
		c-1.387-0.941-2.757-0.779-4.137-0.251c-0.511,0.195-0.724-0.046-0.724-0.542C25.842,23.327,25.848,22.513,25.851,21.698z"/>
	<path style="fill:#00B1F3;" d="M30.697,35.139c-1.618-0.041-3.247,0.137-4.846-0.258c0-0.775-0.001-1.551-0.001-2.326
		c0.202-0.174,0.455-0.319,0.702-0.25c1.37,0.384,2.799-0.289,4.154,0.251C30.703,33.417,30.7,34.278,30.697,35.139z"/>
	<path style="fill:#00AFF1;" d="M30.706,32.557c-1.619,0.334-3.238,0.35-4.856-0.001c0-0.79,0-1.581,0-2.404
		c2.433,0.752,2.433,0.752,4.856,0.008C30.706,30.976,30.706,31.766,30.706,32.557z"/>
	<path style="fill:#5AD9FC;" d="M15.286,32.847c0-0.597,0-1.193,0-1.896c0.187,0.325,0.332,0.576,0.476,0.827
		c0.431,1.935,1.222,3.66,2.848,4.901c-0.694,0.498-0.962-0.096-1.301-0.507C16.24,35.302,15.923,33.977,15.286,32.847z"/>
	<path style="fill:#56D8FC;" d="M23.234,40.016c-1.341,0.336-2.696-0.28-3.343-1.519C21.152,38.681,21.995,39.785,23.234,40.016z"/>
	<path style="fill:#56D8FC;" d="M19.891,38.497c-0.735-0.018-0.957-0.8-1.546-1.037c-0.109-0.295,0.035-0.45,0.299-0.538
		C19.121,37.398,19.797,37.717,19.891,38.497z"/>
	<path style="fill:#65DBFA;" d="M18.644,36.922c-0.1,0.179-0.199,0.359-0.299,0.538c-0.484-0.318-0.97-0.635-1.036-1.29
		c0.408,0.236,0.756,0.624,1.301,0.508C18.616,36.76,18.628,36.841,18.644,36.922z"/>
	<path style="fill:#6AE0FD;" d="M40.033,20.928c-0.874-1.417-2.332-2.367-3.092-3.874C38.336,18.054,39.674,19.1,40.033,20.928z"/>
	<path style="fill:#59D9FC;" d="M21.683,16.016c0,0.172,0,0.344,0,0.516c-1.377,1.109-2.793,2.177-3.858,3.618c0,0,0-0.001,0-0.001
		c-1.416,1.322-1.948,3.089-2.541,5.202c0-1.013,0-1.7,0-2.387c0.989-1.85,2.041-3.646,3.56-5.139
		C19.673,17.011,20.499,16.249,21.683,16.016z"/>
	<path style="fill:#49D3FB;" d="M39.011,21.185c-0.207-0.113-0.25-0.307-0.257-0.519c0-0.172,0-0.344,0-0.516
		c1.431,1.326,1.933,3.091,2.324,4.91c-0.086,0-0.172,0-0.258,0C40.153,23.798,39.89,22.348,39.011,21.185z"/>
	<path style="fill:#2FC9FB;" d="M30.487,15.5c-0.686-0.112-1.432,0.258-2.068-0.257C29.105,15.353,29.851,14.988,30.487,15.5z"/>
	<path style="fill:#3DCEFB;" d="M34.658,38.755c1.714-0.651,2.668-2.193,3.933-3.37c0.212-0.197,0.318-0.512,0.676-0.509
		c-1.015,2.013-2.565,3.466-4.613,4.394C34.655,39.098,34.657,38.926,34.658,38.755z"/>
	<path style="fill:#47D2FB;" d="M39.533,34.105c0.429-1.12,0.858-2.241,1.287-3.361c0.086,0,0.173,0,0.259,0
		C40.808,31.977,40.792,33.327,39.533,34.105z"/>
	<path style="fill:#2FC9FB;" d="M39.011,21.185c1.122,1.049,1.378,2.503,1.809,3.875c0,0.258-0.001,0.517-0.001,0.775
		C40.216,24.285,39.614,22.735,39.011,21.185z"/>
	<path style="fill:#41D0FB;" d="M17.825,20.151c0.871-1.649,2.278-2.726,3.858-3.618c0.001,0.168,0.002,0.336,0.002,0.504
		C20.002,17.583,19.206,19.229,17.825,20.151z"/>
</g>
</svg>
