<?xml version="1.0" encoding="UTF-8"?>
<!DOCTYPE svg PUBLIC "-//W3C//DTD SVG 1.1//EN" "http://www.w3.org/Graphics/SVG/1.1/DTD/svg11.dtd">
<!-- Creator: CorelDRAW 2017 -->
<svg xmlns="http://www.w3.org/2000/svg" xml:space="preserve" width="8.4336mm" height="8.4336mm" version="1.1" style="shape-rendering:geometricPrecision; text-rendering:geometricPrecision; image-rendering:optimizeQuality; fill-rule:evenodd; clip-rule:evenodd"
viewBox="0 0 22437.1 22437.1"
 xmlns:xlink="http://www.w3.org/1999/xlink">
 <defs>
  <style type="text/css">
   <![CDATA[
    .fil1 {fill:#FEFEFE}
    .fil0 {fill:#00828C}
   ]]>
  </style>
 </defs>
 <g id="Layer_x0020_1">
  <metadata id="CorelCorpID_0Corel-Layer"/>
  <circle class="fil0" cx="11218.55" cy="11218.55" r="11218.55"/>
  <path class="fil1" d="M19140.55 5599.17c-32.19,65.98 -54.81,125.04 -84.07,194.48 -167.08,393.21 -339.21,811.97 -523.84,1191.88 -33.79,69.44 -43.9,163.09 -99.23,198.73 -98.44,63.05 -311.01,23.15 -429.66,27.4 -398,14.1 -840.7,121.58 -1194.27,231.19 -885.13,275.36 -1628.46,864.38 -2160.01,1602.65 -62.79,87.26 -132.22,192.88 -178.78,287.86 -164.68,336.28 -330.16,645.16 -396.94,1034.11l1117.65 0.8c201.93,4.79 179.31,167.08 284.4,386.03 94.98,196.87 523.31,1169 531.82,1255.46 -249.28,157.5 -1495.97,111.21 -1907.27,111.21 14.37,257 261.26,751.84 385.23,984.36 43.63,81.94 123.18,211.51 179.05,287.33 67.31,91.25 126.9,175.59 193.15,254.6 79.55,94.71 150.31,159.63 221.61,243.43l235.45 230.66c555.77,449.35 1094.24,749.71 1798.46,940.73 130.89,35.65 250.61,46.82 386.83,77.42 313.67,71.03 595.94,32.72 857.73,74.23l627.86 1423.07c17.03,41.5 99.77,163.88 61.72,201.13 -192.62,88.33 -1121.64,51.35 -1389.28,29.8 -1279.94,-102.96 -2712.59,-628.13 -3692.16,-1491.18l-751.84 -739.6c-492.98,-560.82 -674.42,-966.01 -962.02,-1627.13 -111.47,-256.2 -219.49,-602.32 -231.19,-887.79l-1543.85 0c-99.5,798.13 -448.02,1481.33 -875.55,2124.63 -123.44,186.23 -270.03,350.38 -411.57,520.91 -646.22,779.78 -1653.2,1390.61 -2583.02,1740.73 -805.32,303.29 -1713.32,441.37 -2597.92,421.95 -75.02,-1.6 -106.42,-13.57 -168.41,-18.09 -131.69,-9.05 -395.08,6.92 -500.7,-76.35 33.52,-119.99 114.67,-270.03 163.88,-392.15l423.81 -973.99c30.06,-69.97 67.04,-124.77 87,-212.57 564.81,-71.03 625.47,-8.78 1292.71,-143.93 141,-28.47 246.36,-65.98 378.85,-103.23 463.45,-130.36 894.97,-366.34 1284.2,-635.05 100.83,-69.44 178.25,-123.98 268.7,-197.94 331.49,-270.57 698.9,-667.77 902.69,-1034.65 63.85,-114.67 104.29,-189.69 168.94,-315.79 80.88,-158.3 249.28,-512.93 259.93,-703.15 -360.76,-1.06 -855.86,26.07 -1193.74,-18.89 -20.49,-106.95 -291.85,-695.71 -337.34,-795.47 -29.26,-63.85 -56.14,-130.63 -86.73,-192.35l-264.45 -616.42c300.9,-189.16 1420.41,-118.39 1888.38,-132.76 -89.12,-555.77 -615.09,-1427.33 -1076.15,-1830.38 -263.92,-230.66 -519.85,-459.99 -826.87,-625.47 -314.73,-169.74 -669.1,-337.08 -1004.05,-449.88 -275.36,-92.85 -528.36,-127.7 -794.67,-173.46 -180.64,-31.13 -794.94,-37.25 -885.13,-81.41 -51.35,-39.11 -317.39,-697.3 -349.05,-772.59 -80.35,-191.55 -288.66,-607.91 -344,-797.07 442.7,-200.33 2129.42,-37.25 2695.29,141 100.56,31.66 192.88,54.01 290.25,83.27 418.22,125.31 820.75,293.98 1191.08,504.15 34.85,19.69 84.34,43.37 119.99,65.45l471.43 293.98c425.14,276.42 867.84,671.5 1190.28,1063.64l61.19 71.03c571.46,656.86 1055.13,1661.45 1160.75,2508l1507.67 1.06c30.6,-58 116,-492.98 143.66,-602.32 69.17,-272.43 185.17,-568.54 316.33,-818.09 47.89,-90.99 73.69,-157.23 123.98,-249.28 105.62,-193.95 231.46,-401.99 371.4,-578.11l80.35 -107.22c53.21,-75.82 104.82,-142.07 164.15,-208.05l456 -495.11c172.4,-165.48 562.95,-489.26 745.72,-597.27 91.79,-54.27 133.82,-93.91 221.35,-148.72l473.82 -271.9c81.41,-39.91 185.17,-93.91 262.59,-130.1 518.25,-242.63 1133.88,-436.05 1710.13,-543.79 603.39,-113.07 1526.3,-177.45 2086.32,-19.69z"/>
 </g>
</svg>
